$MeshFormat
2.2 0 8
$EndMeshFormat
$Nodes
872
1 -0.001 -0.075 -0.1125
2 -0.001 0 -0.1125
3 -0.001 0.075 -0.1125
4 0.001 -0.075 -0.1125
5 0.001 0 -0.1125
6 0.001 0.075 -0.1125
7 -0.001 -0.075 -0.03750000000000001
8 -0.001 0 -0.03750000000000001
9 -0.001 0.075 -0.03750000000000001
10 0.001 -0.075 -0.03750000000000001
11 0.001 0 -0.03750000000000001
12 0.001 0.075 -0.03750000000000001
13 -0.001 -0.075 0.03749999999999998
14 -0.001 0 0.03749999999999998
15 -0.001 0.075 0.03749999999999998
16 0.001 -0.075 0.03749999999999998
17 0.001 0 0.03749999999999998
18 0.001 0.075 0.03749999999999998
19 -0.001 -0.075 0.1125
20 -0.001 0 0.1125
21 -0.001 0.075 0.1125
22 0.001 -0.075 0.1125
23 0.001 0 0.1125
24 0.001 0.075 0.1125
25 -0.001 -0.07291666666666997 -0.1125
26 -0.001 -0.07083333333333725 -0.1125
27 -0.001 -0.06875000000000542 -0.1125
28 -0.001 -0.06666666666667721 -0.1125
29 -0.001 -0.06458333333334991 -0.1125
30 -0.001 -0.06250000000002802 -0.1125
31 -0.001 -0.06041666666670072 -0.1125
32 -0.001 -0.05833333333337341 -0.1125
33 -0.001 -0.05625000000004611 -0.1125
34 -0.001 -0.05416666666671881 -0.1125
35 -0.001 -0.05208333333339149 -0.1125
36 -0.001 -0.05000000000006419 -0.1125
37 -0.001 -0.04791666666673688 -0.1125
38 -0.001 -0.04583333333340688 -0.1125
39 -0.001 -0.04375000000007957 -0.1125
40 -0.001 -0.04166666666675226 -0.1125
41 -0.001 -0.03958333333342495 -0.1125
42 -0.001 -0.03750000000009628 -0.1125
43 -0.001 -0.03541666666675933 -0.1125
44 -0.001 -0.03333333333341967 -0.1125
45 -0.001 -0.03125000000008046 -0.1125
46 -0.001 -0.02916666666674275 -0.1125
47 -0.001 -0.02708333333340339 -0.1125
48 -0.001 -0.02500000000006373 -0.1125
49 -0.001 -0.02291666666672557 -0.1125
50 -0.001 -0.02083333333338711 -0.1125
51 -0.001 -0.01875000000004745 -0.1125
52 -0.001 -0.01666666666670779 -0.1125
53 -0.001 -0.01458333333336934 -0.1125
54 -0.001 -0.01250000000003208 -0.1125
55 -0.001 -0.010416666666695 -0.1125
56 -0.001 -0.008333333333355938 -0.1125
57 -0.001 -0.00625000000001627 -0.1125
58 -0.001 -0.004166666666676908 -0.1125
59 -0.001 -0.002083333333339654 -0.1125
60 -0.001 0.002083333333329423 -0.1125
61 -0.001 0.004166666666658252 -0.1125
62 -0.001 0.006249999999988107 -0.1125
63 -0.001 0.008333333333318111 -0.1125
64 -0.001 0.01041666666664691 -0.1125
65 -0.001 0.01249999999997417 -0.1125
66 -0.001 0.01458333333330206 -0.1125
67 -0.001 0.01666666666662935 -0.1125
68 -0.001 0.01874999999995661 -0.1125
69 -0.001 0.02083333333328386 -0.1125
70 -0.001 0.02291666666661112 -0.1125
71 -0.001 0.02499999999993837 -0.1125
72 -0.001 0.02708333333326563 -0.1125
73 -0.001 0.02916666666659424 -0.1125
74 -0.001 0.03124999999992149 -0.1125
75 -0.001 0.03333333333324875 -0.1125
76 -0.001 0.03541666666657601 -0.1125
77 -0.001 0.03749999999990463 -0.1125
78 -0.001 0.03958333333324153 -0.1125
79 -0.001 0.04166666666658114 -0.1125
80 -0.001 0.0437499999999203 -0.1125
81 -0.001 0.04583333333325795 -0.1125
82 -0.001 0.04791666666659727 -0.1125
83 -0.001 0.04999999999993687 -0.1125
84 -0.001 0.05208333333327499 -0.1125
85 -0.001 0.05416666666661338 -0.1125
86 -0.001 0.056249999999953 -0.1125
87 -0.001 0.05833333333329262 -0.1125
88 -0.001 0.06041666666663102 -0.1125
89 -0.001 0.06249999999996821 -0.1125
90 -0.001 0.06458333333330527 -0.1125
91 -0.001 0.06666666666664427 -0.1125
92 -0.001 0.06874999999998388 -0.1125
93 -0.001 0.07083333333332319 -0.1125
94 -0.001 0.07291666666666038 -0.1125
95 0.001 0.07291666666666997 -0.1125
96 0.001 0.07083333333333725 -0.1125
97 0.001 0.06875000000000542 -0.1125
98 0.001 0.06666666666667721 -0.1125
99 0.001 0.06458333333334991 -0.1125
100 0.001 0.06250000000002802 -0.1125
101 0.001 0.06041666666670072 -0.1125
102 0.001 0.05833333333337341 -0.1125
103 0.001 0.05625000000004611 -0.1125
104 0.001 0.05416666666671881 -0.1125
105 0.001 0.05208333333339149 -0.1125
106 0.001 0.05000000000006419 -0.1125
107 0.001 0.04791666666673688 -0.1125
108 0.001 0.04583333333340688 -0.1125
109 0.001 0.04375000000007957 -0.1125
110 0.001 0.04166666666675226 -0.1125
111 0.001 0.03958333333342495 -0.1125
112 0.001 0.03750000000009628 -0.1125
113 0.001 0.03541666666675933 -0.1125
114 0.001 0.03333333333341967 -0.1125
115 0.001 0.03125000000008046 -0.1125
116 0.001 0.02916666666674275 -0.1125
117 0.001 0.02708333333340339 -0.1125
118 0.001 0.02500000000006373 -0.1125
119 0.001 0.02291666666672557 -0.1125
120 0.001 0.02083333333338711 -0.1125
121 0.001 0.01875000000004745 -0.1125
122 0.001 0.01666666666670779 -0.1125
123 0.001 0.01458333333336934 -0.1125
124 0.001 0.01250000000003208 -0.1125
125 0.001 0.010416666666695 -0.1125
126 0.001 0.008333333333355938 -0.1125
127 0.001 0.00625000000001627 -0.1125
128 0.001 0.004166666666676908 -0.1125
129 0.001 0.002083333333339654 -0.1125
130 0.001 -0.002083333333329423 -0.1125
131 0.001 -0.004166666666658252 -0.1125
132 0.001 -0.006249999999988107 -0.1125
133 0.001 -0.008333333333318111 -0.1125
134 0.001 -0.01041666666664691 -0.1125
135 0.001 -0.01249999999997417 -0.1125
136 0.001 -0.01458333333330206 -0.1125
137 0.001 -0.01666666666662935 -0.1125
138 0.001 -0.01874999999995661 -0.1125
139 0.001 -0.02083333333328386 -0.1125
140 0.001 -0.02291666666661112 -0.1125
141 0.001 -0.02499999999993837 -0.1125
142 0.001 -0.02708333333326563 -0.1125
143 0.001 -0.02916666666659424 -0.1125
144 0.001 -0.03124999999992149 -0.1125
145 0.001 -0.03333333333324875 -0.1125
146 0.001 -0.03541666666657601 -0.1125
147 0.001 -0.03749999999990463 -0.1125
148 0.001 -0.03958333333324153 -0.1125
149 0.001 -0.04166666666658114 -0.1125
150 0.001 -0.0437499999999203 -0.1125
151 0.001 -0.04583333333325795 -0.1125
152 0.001 -0.04791666666659727 -0.1125
153 0.001 -0.04999999999993687 -0.1125
154 0.001 -0.05208333333327499 -0.1125
155 0.001 -0.05416666666661338 -0.1125
156 0.001 -0.056249999999953 -0.1125
157 0.001 -0.05833333333329262 -0.1125
158 0.001 -0.06041666666663102 -0.1125
159 0.001 -0.06249999999996821 -0.1125
160 0.001 -0.06458333333330527 -0.1125
161 0.001 -0.06666666666664427 -0.1125
162 0.001 -0.06874999999998388 -0.1125
163 0.001 -0.07083333333332319 -0.1125
164 0.001 -0.07291666666666038 -0.1125
165 -0.001 -0.07291666666666997 -0.03750000000000001
166 -0.001 -0.07083333333333725 -0.03750000000000001
167 -0.001 -0.06875000000000542 -0.03750000000000001
168 -0.001 -0.06666666666667721 -0.03750000000000001
169 -0.001 -0.06458333333334991 -0.03750000000000001
170 -0.001 -0.06250000000002802 -0.03750000000000001
171 -0.001 -0.06041666666670072 -0.03750000000000001
172 -0.001 -0.05833333333337341 -0.03750000000000001
173 -0.001 -0.05625000000004611 -0.03750000000000001
174 -0.001 -0.05416666666671881 -0.03750000000000001
175 -0.001 -0.05208333333339149 -0.03750000000000001
176 -0.001 -0.05000000000006419 -0.03750000000000001
177 -0.001 -0.04791666666673688 -0.03750000000000001
178 -0.001 -0.04583333333340688 -0.03750000000000001
179 -0.001 -0.04375000000007957 -0.03750000000000001
180 -0.001 -0.04166666666675226 -0.03750000000000001
181 -0.001 -0.03958333333342495 -0.03750000000000001
182 -0.001 -0.03750000000009628 -0.03750000000000001
183 -0.001 -0.03541666666675933 -0.03750000000000001
184 -0.001 -0.03333333333341967 -0.03750000000000001
185 -0.001 -0.03125000000008046 -0.03750000000000001
186 -0.001 -0.02916666666674275 -0.03750000000000001
187 -0.001 -0.02708333333340339 -0.03750000000000001
188 -0.001 -0.02500000000006373 -0.03750000000000001
189 -0.001 -0.02291666666672557 -0.03750000000000001
190 -0.001 -0.02083333333338711 -0.03750000000000001
191 -0.001 -0.01875000000004745 -0.03750000000000001
192 -0.001 -0.01666666666670779 -0.03750000000000001
193 -0.001 -0.01458333333336934 -0.03750000000000001
194 -0.001 -0.01250000000003208 -0.03750000000000001
195 -0.001 -0.010416666666695 -0.03750000000000001
196 -0.001 -0.008333333333355938 -0.03750000000000001
197 -0.001 -0.00625000000001627 -0.03750000000000001
198 -0.001 -0.004166666666676908 -0.03750000000000001
199 -0.001 -0.002083333333339654 -0.03750000000000001
200 -0.001 0.002083333333329423 -0.03750000000000001
201 -0.001 0.004166666666658252 -0.03750000000000001
202 -0.001 0.006249999999988107 -0.03750000000000001
203 -0.001 0.008333333333318111 -0.03750000000000001
204 -0.001 0.01041666666664691 -0.03750000000000001
205 -0.001 0.01249999999997417 -0.03750000000000001
206 -0.001 0.01458333333330206 -0.03750000000000001
207 -0.001 0.01666666666662935 -0.03750000000000001
208 -0.001 0.01874999999995661 -0.03750000000000001
209 -0.001 0.02083333333328386 -0.03750000000000001
210 -0.001 0.02291666666661112 -0.03750000000000001
211 -0.001 0.02499999999993837 -0.03750000000000001
212 -0.001 0.02708333333326563 -0.03750000000000001
213 -0.001 0.02916666666659424 -0.03750000000000001
214 -0.001 0.03124999999992149 -0.03750000000000001
215 -0.001 0.03333333333324875 -0.03750000000000001
216 -0.001 0.03541666666657601 -0.03750000000000001
217 -0.001 0.03749999999990463 -0.03750000000000001
218 -0.001 0.03958333333324153 -0.03750000000000001
219 -0.001 0.04166666666658114 -0.03750000000000001
220 -0.001 0.0437499999999203 -0.03750000000000001
221 -0.001 0.04583333333325795 -0.03750000000000001
222 -0.001 0.04791666666659727 -0.03750000000000001
223 -0.001 0.04999999999993687 -0.03750000000000001
224 -0.001 0.05208333333327499 -0.03750000000000001
225 -0.001 0.05416666666661338 -0.03750000000000001
226 -0.001 0.056249999999953 -0.03750000000000001
227 -0.001 0.05833333333329262 -0.03750000000000001
228 -0.001 0.06041666666663102 -0.03750000000000001
229 -0.001 0.06249999999996821 -0.03750000000000001
230 -0.001 0.06458333333330527 -0.03750000000000001
231 -0.001 0.06666666666664427 -0.03750000000000001
232 -0.001 0.06874999999998388 -0.03750000000000001
233 -0.001 0.07083333333332319 -0.03750000000000001
234 -0.001 0.07291666666666038 -0.03750000000000001
235 0.001 0.07291666666666997 -0.03750000000000001
236 0.001 0.07083333333333725 -0.03750000000000001
237 0.001 0.06875000000000542 -0.03750000000000001
238 0.001 0.06666666666667721 -0.03750000000000001
239 0.001 0.06458333333334991 -0.03750000000000001
240 0.001 0.06250000000002802 -0.03750000000000001
241 0.001 0.06041666666670072 -0.03750000000000001
242 0.001 0.05833333333337341 -0.03750000000000001
243 0.001 0.05625000000004611 -0.03750000000000001
244 0.001 0.05416666666671881 -0.03750000000000001
245 0.001 0.05208333333339149 -0.03750000000000001
246 0.001 0.05000000000006419 -0.03750000000000001
247 0.001 0.04791666666673688 -0.03750000000000001
248 0.001 0.04583333333340688 -0.03750000000000001
249 0.001 0.04375000000007957 -0.03750000000000001
250 0.001 0.04166666666675226 -0.03750000000000001
251 0.001 0.03958333333342495 -0.03750000000000001
252 0.001 0.03750000000009628 -0.03750000000000001
253 0.001 0.03541666666675933 -0.03750000000000001
254 0.001 0.03333333333341967 -0.03750000000000001
255 0.001 0.03125000000008046 -0.03750000000000001
256 0.001 0.02916666666674275 -0.03750000000000001
257 0.001 0.02708333333340339 -0.03750000000000001
258 0.001 0.02500000000006373 -0.03750000000000001
259 0.001 0.02291666666672557 -0.03750000000000001
260 0.001 0.02083333333338711 -0.03750000000000001
261 0.001 0.01875000000004745 -0.03750000000000001
262 0.001 0.01666666666670779 -0.03750000000000001
263 0.001 0.01458333333336934 -0.03750000000000001
264 0.001 0.01250000000003208 -0.03750000000000001
265 0.001 0.010416666666695 -0.03750000000000001
266 0.001 0.008333333333355938 -0.03750000000000001
267 0.001 0.00625000000001627 -0.03750000000000001
268 0.001 0.004166666666676908 -0.03750000000000001
269 0.001 0.002083333333339654 -0.03750000000000001
270 0.001 -0.002083333333329423 -0.03750000000000001
271 0.001 -0.004166666666658252 -0.03750000000000001
272 0.001 -0.006249999999988107 -0.03750000000000001
273 0.001 -0.008333333333318111 -0.03750000000000001
274 0.001 -0.01041666666664691 -0.03750000000000001
275 0.001 -0.01249999999997417 -0.03750000000000001
276 0.001 -0.01458333333330206 -0.03750000000000001
277 0.001 -0.01666666666662935 -0.03750000000000001
278 0.001 -0.01874999999995661 -0.03750000000000001
279 0.001 -0.02083333333328386 -0.03750000000000001
280 0.001 -0.02291666666661112 -0.03750000000000001
281 0.001 -0.02499999999993837 -0.03750000000000001
282 0.001 -0.02708333333326563 -0.03750000000000001
283 0.001 -0.02916666666659424 -0.03750000000000001
284 0.001 -0.03124999999992149 -0.03750000000000001
285 0.001 -0.03333333333324875 -0.03750000000000001
286 0.001 -0.03541666666657601 -0.03750000000000001
287 0.001 -0.03749999999990463 -0.03750000000000001
288 0.001 -0.03958333333324153 -0.03750000000000001
289 0.001 -0.04166666666658114 -0.03750000000000001
290 0.001 -0.0437499999999203 -0.03750000000000001
291 0.001 -0.04583333333325795 -0.03750000000000001
292 0.001 -0.04791666666659727 -0.03750000000000001
293 0.001 -0.04999999999993687 -0.03750000000000001
294 0.001 -0.05208333333327499 -0.03750000000000001
295 0.001 -0.05416666666661338 -0.03750000000000001
296 0.001 -0.056249999999953 -0.03750000000000001
297 0.001 -0.05833333333329262 -0.03750000000000001
298 0.001 -0.06041666666663102 -0.03750000000000001
299 0.001 -0.06249999999996821 -0.03750000000000001
300 0.001 -0.06458333333330527 -0.03750000000000001
301 0.001 -0.06666666666664427 -0.03750000000000001
302 0.001 -0.06874999999998388 -0.03750000000000001
303 0.001 -0.07083333333332319 -0.03750000000000001
304 0.001 -0.07291666666666038 -0.03750000000000001
305 -0.001 -0.07291666666666997 0.03749999999999998
306 -0.001 -0.07083333333333725 0.03749999999999998
307 -0.001 -0.06875000000000542 0.03749999999999998
308 -0.001 -0.06666666666667721 0.03749999999999998
309 -0.001 -0.06458333333334991 0.03749999999999998
310 -0.001 -0.06250000000002802 0.03749999999999998
311 -0.001 -0.06041666666670072 0.03749999999999998
312 -0.001 -0.05833333333337341 0.03749999999999998
313 -0.001 -0.05625000000004611 0.03749999999999998
314 -0.001 -0.05416666666671881 0.03749999999999998
315 -0.001 -0.05208333333339149 0.03749999999999998
316 -0.001 -0.05000000000006419 0.03749999999999998
317 -0.001 -0.04791666666673688 0.03749999999999998
318 -0.001 -0.04583333333340688 0.03749999999999998
319 -0.001 -0.04375000000007957 0.03749999999999998
320 -0.001 -0.04166666666675226 0.03749999999999998
321 -0.001 -0.03958333333342495 0.03749999999999998
322 -0.001 -0.03750000000009628 0.03749999999999998
323 -0.001 -0.03541666666675933 0.03749999999999998
324 -0.001 -0.03333333333341967 0.03749999999999998
325 -0.001 -0.03125000000008046 0.03749999999999998
326 -0.001 -0.02916666666674275 0.03749999999999998
327 -0.001 -0.02708333333340339 0.03749999999999998
328 -0.001 -0.02500000000006373 0.03749999999999998
329 -0.001 -0.02291666666672557 0.03749999999999998
330 -0.001 -0.02083333333338711 0.03749999999999998
331 -0.001 -0.01875000000004745 0.03749999999999998
332 -0.001 -0.01666666666670779 0.03749999999999998
333 -0.001 -0.01458333333336934 0.03749999999999998
334 -0.001 -0.01250000000003208 0.03749999999999998
335 -0.001 -0.010416666666695 0.03749999999999998
336 -0.001 -0.008333333333355938 0.03749999999999998
337 -0.001 -0.00625000000001627 0.03749999999999998
338 -0.001 -0.004166666666676908 0.03749999999999998
339 -0.001 -0.002083333333339654 0.03749999999999998
340 -0.001 0.002083333333329423 0.03749999999999998
341 -0.001 0.004166666666658252 0.03749999999999998
342 -0.001 0.006249999999988107 0.03749999999999998
343 -0.001 0.008333333333318111 0.03749999999999998
344 -0.001 0.01041666666664691 0.03749999999999998
345 -0.001 0.01249999999997417 0.03749999999999998
346 -0.001 0.01458333333330206 0.03749999999999998
347 -0.001 0.01666666666662935 0.03749999999999998
348 -0.001 0.01874999999995661 0.03749999999999998
349 -0.001 0.02083333333328386 0.03749999999999998
350 -0.001 0.02291666666661112 0.03749999999999998
351 -0.001 0.02499999999993837 0.03749999999999998
352 -0.001 0.02708333333326563 0.03749999999999998
353 -0.001 0.02916666666659424 0.03749999999999998
354 -0.001 0.03124999999992149 0.03749999999999998
355 -0.001 0.03333333333324875 0.03749999999999998
356 -0.001 0.03541666666657601 0.03749999999999998
357 -0.001 0.03749999999990463 0.03749999999999998
358 -0.001 0.03958333333324153 0.03749999999999998
359 -0.001 0.04166666666658114 0.03749999999999998
360 -0.001 0.0437499999999203 0.03749999999999998
361 -0.001 0.04583333333325795 0.03749999999999998
362 -0.001 0.04791666666659727 0.03749999999999998
363 -0.001 0.04999999999993687 0.03749999999999998
364 -0.001 0.05208333333327499 0.03749999999999998
365 -0.001 0.05416666666661338 0.03749999999999998
366 -0.001 0.056249999999953 0.03749999999999998
367 -0.001 0.05833333333329262 0.03749999999999998
368 -0.001 0.06041666666663102 0.03749999999999998
369 -0.001 0.06249999999996821 0.03749999999999998
370 -0.001 0.06458333333330527 0.03749999999999998
371 -0.001 0.06666666666664427 0.03749999999999998
372 -0.001 0.06874999999998388 0.03749999999999998
373 -0.001 0.07083333333332319 0.03749999999999998
374 -0.001 0.07291666666666038 0.03749999999999998
375 0.001 0.07291666666666997 0.03749999999999998
376 0.001 0.07083333333333725 0.03749999999999998
377 0.001 0.06875000000000542 0.03749999999999998
378 0.001 0.06666666666667721 0.03749999999999998
379 0.001 0.06458333333334991 0.03749999999999998
380 0.001 0.06250000000002802 0.03749999999999998
381 0.001 0.06041666666670072 0.03749999999999998
382 0.001 0.05833333333337341 0.03749999999999998
383 0.001 0.05625000000004611 0.03749999999999998
384 0.001 0.05416666666671881 0.03749999999999998
385 0.001 0.05208333333339149 0.03749999999999998
386 0.001 0.05000000000006419 0.03749999999999998
387 0.001 0.04791666666673688 0.03749999999999998
388 0.001 0.04583333333340688 0.03749999999999998
389 0.001 0.04375000000007957 0.03749999999999998
390 0.001 0.04166666666675226 0.03749999999999998
391 0.001 0.03958333333342495 0.03749999999999998
392 0.001 0.03750000000009628 0.03749999999999998
393 0.001 0.03541666666675933 0.03749999999999998
394 0.001 0.03333333333341967 0.03749999999999998
395 0.001 0.03125000000008046 0.03749999999999998
396 0.001 0.02916666666674275 0.03749999999999998
397 0.001 0.02708333333340339 0.03749999999999998
398 0.001 0.02500000000006373 0.03749999999999998
399 0.001 0.02291666666672557 0.03749999999999998
400 0.001 0.02083333333338711 0.03749999999999998
401 0.001 0.01875000000004745 0.03749999999999998
402 0.001 0.01666666666670779 0.03749999999999998
403 0.001 0.01458333333336934 0.03749999999999998
404 0.001 0.01250000000003208 0.03749999999999998
405 0.001 0.010416666666695 0.03749999999999998
406 0.001 0.008333333333355938 0.03749999999999998
407 0.001 0.00625000000001627 0.03749999999999998
408 0.001 0.004166666666676908 0.03749999999999998
409 0.001 0.002083333333339654 0.03749999999999998
410 0.001 -0.002083333333329423 0.03749999999999998
411 0.001 -0.004166666666658252 0.03749999999999998
412 0.001 -0.006249999999988107 0.03749999999999998
413 0.001 -0.008333333333318111 0.03749999999999998
414 0.001 -0.01041666666664691 0.03749999999999998
415 0.001 -0.01249999999997417 0.03749999999999998
416 0.001 -0.01458333333330206 0.03749999999999998
417 0.001 -0.01666666666662935 0.03749999999999998
418 0.001 -0.01874999999995661 0.03749999999999998
419 0.001 -0.02083333333328386 0.03749999999999998
420 0.001 -0.02291666666661112 0.03749999999999998
421 0.001 -0.02499999999993837 0.03749999999999998
422 0.001 -0.02708333333326563 0.03749999999999998
423 0.001 -0.02916666666659424 0.03749999999999998
424 0.001 -0.03124999999992149 0.03749999999999998
425 0.001 -0.03333333333324875 0.03749999999999998
426 0.001 -0.03541666666657601 0.03749999999999998
427 0.001 -0.03749999999990463 0.03749999999999998
428 0.001 -0.03958333333324153 0.03749999999999998
429 0.001 -0.04166666666658114 0.03749999999999998
430 0.001 -0.0437499999999203 0.03749999999999998
431 0.001 -0.04583333333325795 0.03749999999999998
432 0.001 -0.04791666666659727 0.03749999999999998
433 0.001 -0.04999999999993687 0.03749999999999998
434 0.001 -0.05208333333327499 0.03749999999999998
435 0.001 -0.05416666666661338 0.03749999999999998
436 0.001 -0.056249999999953 0.03749999999999998
437 0.001 -0.05833333333329262 0.03749999999999998
438 0.001 -0.06041666666663102 0.03749999999999998
439 0.001 -0.06249999999996821 0.03749999999999998
440 0.001 -0.06458333333330527 0.03749999999999998
441 0.001 -0.06666666666664427 0.03749999999999998
442 0.001 -0.06874999999998388 0.03749999999999998
443 0.001 -0.07083333333332319 0.03749999999999998
444 0.001 -0.07291666666666038 0.03749999999999998
445 -0.001 -0.07291666666666997 0.1125
446 -0.001 -0.07083333333333725 0.1125
447 -0.001 -0.06875000000000542 0.1125
448 -0.001 -0.06666666666667721 0.1125
449 -0.001 -0.06458333333334991 0.1125
450 -0.001 -0.06250000000002802 0.1125
451 -0.001 -0.06041666666670072 0.1125
452 -0.001 -0.05833333333337341 0.1125
453 -0.001 -0.05625000000004611 0.1125
454 -0.001 -0.05416666666671881 0.1125
455 -0.001 -0.05208333333339149 0.1125
456 -0.001 -0.05000000000006419 0.1125
457 -0.001 -0.04791666666673688 0.1125
458 -0.001 -0.04583333333340688 0.1125
459 -0.001 -0.04375000000007957 0.1125
460 -0.001 -0.04166666666675226 0.1125
461 -0.001 -0.03958333333342495 0.1125
462 -0.001 -0.03750000000009628 0.1125
463 -0.001 -0.03541666666675933 0.1125
464 -0.001 -0.03333333333341967 0.1125
465 -0.001 -0.03125000000008046 0.1125
466 -0.001 -0.02916666666674275 0.1125
467 -0.001 -0.02708333333340339 0.1125
468 -0.001 -0.02500000000006373 0.1125
469 -0.001 -0.02291666666672557 0.1125
470 -0.001 -0.02083333333338711 0.1125
471 -0.001 -0.01875000000004745 0.1125
472 -0.001 -0.01666666666670779 0.1125
473 -0.001 -0.01458333333336934 0.1125
474 -0.001 -0.01250000000003208 0.1125
475 -0.001 -0.010416666666695 0.1125
476 -0.001 -0.008333333333355938 0.1125
477 -0.001 -0.00625000000001627 0.1125
478 -0.001 -0.004166666666676908 0.1125
479 -0.001 -0.002083333333339654 0.1125
480 -0.001 0.002083333333329423 0.1125
481 -0.001 0.004166666666658252 0.1125
482 -0.001 0.006249999999988107 0.1125
483 -0.001 0.008333333333318111 0.1125
484 -0.001 0.01041666666664691 0.1125
485 -0.001 0.01249999999997417 0.1125
486 -0.001 0.01458333333330206 0.1125
487 -0.001 0.01666666666662935 0.1125
488 -0.001 0.01874999999995661 0.1125
489 -0.001 0.02083333333328386 0.1125
490 -0.001 0.02291666666661112 0.1125
491 -0.001 0.02499999999993837 0.1125
492 -0.001 0.02708333333326563 0.1125
493 -0.001 0.02916666666659424 0.1125
494 -0.001 0.03124999999992149 0.1125
495 -0.001 0.03333333333324875 0.1125
496 -0.001 0.03541666666657601 0.1125
497 -0.001 0.03749999999990463 0.1125
498 -0.001 0.03958333333324153 0.1125
499 -0.001 0.04166666666658114 0.1125
500 -0.001 0.0437499999999203 0.1125
501 -0.001 0.04583333333325795 0.1125
502 -0.001 0.04791666666659727 0.1125
503 -0.001 0.04999999999993687 0.1125
504 -0.001 0.05208333333327499 0.1125
505 -0.001 0.05416666666661338 0.1125
506 -0.001 0.056249999999953 0.1125
507 -0.001 0.05833333333329262 0.1125
508 -0.001 0.06041666666663102 0.1125
509 -0.001 0.06249999999996821 0.1125
510 -0.001 0.06458333333330527 0.1125
511 -0.001 0.06666666666664427 0.1125
512 -0.001 0.06874999999998388 0.1125
513 -0.001 0.07083333333332319 0.1125
514 -0.001 0.07291666666666038 0.1125
515 0.001 0.07291666666666997 0.1125
516 0.001 0.07083333333333725 0.1125
517 0.001 0.06875000000000542 0.1125
518 0.001 0.06666666666667721 0.1125
519 0.001 0.06458333333334991 0.1125
520 0.001 0.06250000000002802 0.1125
521 0.001 0.06041666666670072 0.1125
522 0.001 0.05833333333337341 0.1125
523 0.001 0.05625000000004611 0.1125
524 0.001 0.05416666666671881 0.1125
525 0.001 0.05208333333339149 0.1125
526 0.001 0.05000000000006419 0.1125
527 0.001 0.04791666666673688 0.1125
528 0.001 0.04583333333340688 0.1125
529 0.001 0.04375000000007957 0.1125
530 0.001 0.04166666666675226 0.1125
531 0.001 0.03958333333342495 0.1125
532 0.001 0.03750000000009628 0.1125
533 0.001 0.03541666666675933 0.1125
534 0.001 0.03333333333341967 0.1125
535 0.001 0.03125000000008046 0.1125
536 0.001 0.02916666666674275 0.1125
537 0.001 0.02708333333340339 0.1125
538 0.001 0.02500000000006373 0.1125
539 0.001 0.02291666666672557 0.1125
540 0.001 0.02083333333338711 0.1125
541 0.001 0.01875000000004745 0.1125
542 0.001 0.01666666666670779 0.1125
543 0.001 0.01458333333336934 0.1125
544 0.001 0.01250000000003208 0.1125
545 0.001 0.010416666666695 0.1125
546 0.001 0.008333333333355938 0.1125
547 0.001 0.00625000000001627 0.1125
548 0.001 0.004166666666676908 0.1125
549 0.001 0.002083333333339654 0.1125
550 0.001 -0.002083333333329423 0.1125
551 0.001 -0.004166666666658252 0.1125
552 0.001 -0.006249999999988107 0.1125
553 0.001 -0.008333333333318111 0.1125
554 0.001 -0.01041666666664691 0.1125
555 0.001 -0.01249999999997417 0.1125
556 0.001 -0.01458333333330206 0.1125
557 0.001 -0.01666666666662935 0.1125
558 0.001 -0.01874999999995661 0.1125
559 0.001 -0.02083333333328386 0.1125
560 0.001 -0.02291666666661112 0.1125
561 0.001 -0.02499999999993837 0.1125
562 0.001 -0.02708333333326563 0.1125
563 0.001 -0.02916666666659424 0.1125
564 0.001 -0.03124999999992149 0.1125
565 0.001 -0.03333333333324875 0.1125
566 0.001 -0.03541666666657601 0.1125
567 0.001 -0.03749999999990463 0.1125
568 0.001 -0.03958333333324153 0.1125
569 0.001 -0.04166666666658114 0.1125
570 0.001 -0.0437499999999203 0.1125
571 0.001 -0.04583333333325795 0.1125
572 0.001 -0.04791666666659727 0.1125
573 0.001 -0.04999999999993687 0.1125
574 0.001 -0.05208333333327499 0.1125
575 0.001 -0.05416666666661338 0.1125
576 0.001 -0.056249999999953 0.1125
577 0.001 -0.05833333333329262 0.1125
578 0.001 -0.06041666666663102 0.1125
579 0.001 -0.06249999999996821 0.1125
580 0.001 -0.06458333333330527 0.1125
581 0.001 -0.06666666666664427 0.1125
582 0.001 -0.06874999999998388 0.1125
583 0.001 -0.07083333333332319 0.1125
584 0.001 -0.07291666666666038 0.1125
585 0 0.03854166666666685 -0.1125
586 1.084202172485504e-19 0.03645833333333406 -0.1125
587 0 -0.03645833333333406 -0.1125
588 0 0.04062499999999997 -0.1125
589 0 -0.04062499999999997 -0.1125
590 -5.421010862427522e-20 -0.03437500000000094 -0.1125
591 0 0.03437500000000094 -0.1125
592 5.421010862427523e-20 -0.04270833333333332 -0.1125
593 0 -0.04479166666666617 -0.1125
594 -5.421010862427522e-20 -0.03020833333333474 -0.1125
595 -5.421010862427522e-20 -0.04687499999999974 -0.1125
596 -1.084202172485504e-19 0.04687499999999974 -0.1125
597 -5.421010862427522e-20 -0.0281250000000015 -0.1125
598 -1.084202172485504e-19 -0.02604166666666778 -0.1125
599 0 0.02604166666666778 -0.1125
600 0 0.0239583333333347 -0.1125
601 -5.421010862427522e-20 -0.05312499999999967 -0.1125
602 0 0.05312499999999967 -0.1125
603 -5.421010862427522e-20 0.02187500000000191 -0.1125
604 1.084202172485504e-19 0.05520833333333282 -0.1125
605 5.421010862427522e-20 0.01979166666666876 -0.1125
606 -5.421010862427522e-20 -0.01979166666666876 -0.1125
607 0 0.05729166666666628 -0.1125
608 0 -0.05729166666666628 -0.1125
609 0 -0.05937499999999944 -0.1125
610 -5.421010862427522e-20 0.05937499999999944 -0.1125
611 0 -0.01562500000000214 -0.1125
612 -5.421010862427522e-20 -0.06145833333333199 -0.1125
613 0 0.06145833333333199 -0.1125
614 -5.421010862427522e-20 0.01354166666666941 -0.1125
615 -5.421010862427522e-20 0.06354166666666283 -0.1125
616 0 -0.06354166666666286 -0.1125
617 -1.084202172485504e-19 -0.009375000000003988 -0.1125
618 0 0.009375000000003988 -0.1125
619 -5.421010862427522e-20 0.06562499999999416 -0.1125
620 -1.084202172485504e-19 -0.06562499999999416 -0.1125
621 0 -0.007291666666669606 -0.1125
622 -5.421010862427522e-20 0.007291666666669607 -0.1125
623 5.421010862427522e-20 -0.06770833333332769 -0.1125
624 -5.421010862427522e-20 -0.005208333333334884 -0.1125
625 0 -0.06979166666666244 -0.1125
626 0 -0.07395833333333257 -0.1125
627 0 0.07395833333333258 -0.1125
628 0 -0.001041666666667269 -0.1125
629 -5.421010862427522e-20 0.001041666666667269 -0.1125
630 -5.421010862427522e-20 0.07187499999999769 -0.1125
631 -5.421010862427522e-20 -0.07187499999999769 -0.1125
632 5.421010862427522e-20 -0.003125000000001059 -0.1125
633 0 0.003125000000001059 -0.1125
634 0 0.06979166666666244 -0.1125
635 1.084202172485504e-19 0.005208333333334884 -0.1125
636 -5.421010862427522e-20 0.06770833333332769 -0.1125
637 0 0.01145833333333704 -0.1125
638 -1.084202172485504e-19 -0.01145833333333704 -0.1125
639 -1.084202172485504e-19 -0.01354166666666941 -0.1125
640 -3.503222390735541e-14 0.01562499999996571 -0.1125
641 4.085815886853364e-14 -0.01770833333329298 -0.1125
642 -4.086086937566667e-14 0.01770833333329298 -0.1125
643 1.084202172485505e-19 -0.05520833333333283 -0.1125
644 -5.421010862427522e-20 -0.02187500000000192 -0.1125
645 5.96076284362796e-14 -0.02395833333327475 -0.1125
646 -6.064332385884737e-14 -0.05104166666672784 -0.1125
647 6.064304151079223e-14 0.05104166666672784 -0.1125
648 6.627005078527836e-14 0.04895833333340052 -0.1125
649 5.421010862427523e-20 -0.04895833333333381 -0.1125
650 -5.308076428784063e-14 0.02812499999994856 -0.1125
651 -5.720650972431683e-14 0.03020833333327787 -0.1125
652 0 0.04479166666666617 -0.1125
653 0 -0.03229166666666759 -0.1125
654 0 0.03229166666666759 -0.1125
655 -5.421010862427522e-20 0.04270833333333331 -0.1125
656 -2.728414127818968e-14 -0.03854166666669363 -0.1125
657 0 -0.03854166666666685 -0.03750000000000001
658 1.084202172485504e-19 0.03645833333333406 -0.03750000000000001
659 0 -0.03645833333333406 -0.03750000000000001
660 -5.421010862427522e-20 -0.03437500000000094 -0.03750000000000001
661 0 0.04270833333333331 -0.03750000000000001
662 5.421010862427523e-20 -0.04270833333333332 -0.03750000000000001
663 0 -0.03229166666666759 -0.03750000000000001
664 0 0.04479166666666617 -0.03750000000000001
665 -1.084202172485504e-19 -0.03020833333333473 -0.03750000000000001
666 -1.084202172485504e-19 0.0281250000000015 -0.03750000000000001
667 -1.084202172485504e-19 -0.02604166666666778 -0.03750000000000001
668 0 0.05104166666666688 -0.03750000000000001
669 1.084202172485504e-19 0.0239583333333347 -0.03750000000000001
670 -5.421010862427522e-20 -0.05312499999999967 -0.03750000000000001
671 5.421010862427523e-20 -0.02187500000000192 -0.03750000000000001
672 -5.421010862427522e-20 -0.05520833333333282 -0.03750000000000001
673 1.084202172485504e-19 0.05520833333333282 -0.03750000000000001
674 -5.421010862427522e-20 0.01979166666666876 -0.03750000000000001
675 -5.421010862427522e-20 0.05729166666666628 -0.03750000000000001
676 -5.421010862427522e-20 0.0177083333333353 -0.03750000000000001
677 0 -0.01562500000000214 -0.03750000000000001
678 -5.421010862427522e-20 -0.06145833333333199 -0.03750000000000001
679 -5.421010862427522e-20 0.01354166666666941 -0.03750000000000001
680 -5.421010862427522e-20 -0.01354166666666941 -0.03750000000000001
681 0 0.01145833333333704 -0.03750000000000001
682 -5.421010862427522e-20 -0.01145833333333704 -0.03750000000000001
683 -5.421010862427522e-20 0.06354166666666283 -0.03750000000000001
684 -5.421010862427522e-20 0.06562499999999416 -0.03750000000000001
685 -5.421010862427522e-20 -0.06562499999999416 -0.03750000000000001
686 0 -0.007291666666669606 -0.03750000000000001
687 -5.421010862427522e-20 0.007291666666669607 -0.03750000000000001
688 -5.421010862427522e-20 0.06770833333332768 -0.03750000000000001
689 0 -0.06979166666666244 -0.03750000000000001
690 1.522532042325168e-15 -0.003125000000003123 -0.03750000000000001
691 -1.522390466803302e-15 0.003125000000003123 -0.03750000000000001
692 0 -0.07187499999999769 -0.03750000000000001
693 0 -0.0739583333333326 -0.03750000000000001
694 0 0.07395833333333258 -0.03750000000000001
695 0 -0.001041666666667269 -0.03750000000000001
696 -5.421010862427522e-20 0.001041666666667269 -0.03750000000000001
697 0 0.07187499999999769 -0.03750000000000001
698 0 0.06979166666666244 -0.03750000000000001
699 1.084202172485504e-19 -0.005208333333334884 -0.03750000000000001
700 1.084202172485504e-19 0.005208333333334884 -0.03750000000000001
701 -5.421010862427522e-20 -0.06770833333332769 -0.03750000000000001
702 -5.421010862427522e-20 0.00937500000000399 -0.03750000000000001
703 -5.421010862427522e-20 -0.009375000000003988 -0.03750000000000001
704 0 -0.06354166666666286 -0.03750000000000001
705 0 0.06145833333333199 -0.03750000000000001
706 -3.503222390735541e-14 0.01562499999996571 -0.03750000000000001
707 -3.626148047206156e-14 -0.059375000000037 -0.03750000000000001
708 0 0.05937499999999944 -0.03750000000000001
709 4.085815886853364e-14 -0.01770833333329298 -0.03750000000000001
710 -4.21441242907597e-14 -0.05729166666670979 -0.03750000000000001
711 0 -0.01979166666666876 -0.03750000000000001
712 0 0.02187500000000191 -0.03750000000000001
713 0 0.05312499999999967 -0.03750000000000001
714 5.96076284362796e-14 -0.02395833333327475 -0.03750000000000001
715 -6.064332385884737e-14 -0.05104166666672784 -0.03750000000000001
716 0 0.02604166666666778 -0.03750000000000001
717 6.627005078527836e-14 0.04895833333340052 -0.03750000000000001
718 5.421010862427523e-20 -0.04895833333333381 -0.03750000000000001
719 5.30827551114418e-14 -0.02812499999994856 -0.03750000000000001
720 0 -0.04687499999999974 -0.03750000000000001
721 4.620313333501135e-14 0.04687500000004562 -0.03750000000000001
722 -5.720650972431683e-14 0.03020833333327787 -0.03750000000000001
723 0 -0.04479166666666617 -0.03750000000000001
724 0 0.03229166666666759 -0.03750000000000001
725 0 0.03437500000000094 -0.03750000000000001
726 6.59384074808218e-14 0.04062500000006557 -0.03750000000000001
727 -6.593741912864505e-14 -0.04062500000006557 -0.03750000000000001
728 0 0.03854166666666685 -0.03750000000000001
729 0 -0.03854166666666685 0.03749999999999998
730 0 -0.04062499999999997 0.03749999999999998
731 -5.421010862427522e-20 -0.03437500000000094 0.03749999999999998
732 0 0.04270833333333331 0.03749999999999998
733 0 0.04479166666666617 0.03749999999999998
734 -1.084202172485504e-19 0.03020833333333473 0.03749999999999998
735 -1.084202172485504e-19 -0.03020833333333473 0.03749999999999998
736 -1.084202172485504e-19 0.04687499999999974 0.03749999999999998
737 -5.421010862427522e-20 -0.0281250000000015 0.03749999999999998
738 0 0.02604166666666778 0.03749999999999998
739 0 -0.05104166666666689 0.03749999999999998
740 0 0.0239583333333347 0.03749999999999998
741 0 0.05312499999999967 0.03749999999999998
742 -5.421010862427522e-20 0.02187500000000191 0.03749999999999998
743 -5.421010862427522e-20 -0.05520833333333282 0.03749999999999998
744 1.084202172485504e-19 0.05520833333333282 0.03749999999999998
745 0 -0.05729166666666628 0.03749999999999998
746 0 -0.05937499999999944 0.03749999999999998
747 0 0.01562500000000214 0.03749999999999998
748 -5.421010862427522e-20 0.01354166666666941 0.03749999999999998
749 -5.421010862427522e-20 -0.01354166666666941 0.03749999999999998
750 0 0.01145833333333704 0.03749999999999998
751 -5.421010862427522e-20 -0.01145833333333704 0.03749999999999998
752 -5.421010862427522e-20 0.06354166666666283 0.03749999999999998
753 0 -0.06354166666666286 0.03749999999999998
754 -1.084202172485504e-19 -0.009375000000003988 0.03749999999999998
755 0 0.009375000000003988 0.03749999999999998
756 0 0.06562499999999416 0.03749999999999998
757 -5.421010862427522e-20 -0.06562499999999416 0.03749999999999998
758 5.421010862427522e-20 -0.06770833333332769 0.03749999999999998
759 -5.421010862427522e-20 -0.005208333333334884 0.03749999999999998
760 0 0.06979166666666242 0.03749999999999998
761 1.522532042325168e-15 -0.003125000000003123 0.03749999999999998
762 -1.522390466803302e-15 0.003125000000003123 0.03749999999999998
763 -1.084202172485504e-19 0.001041666666667269 0.03749999999999998
764 -5.421010862427522e-20 -0.07395833333333258 0.03749999999999998
765 0 0.07395833333333258 0.03749999999999998
766 0 -0.001041666666667269 0.03749999999999998
767 -5.421010862427522e-20 0.07187499999999769 0.03749999999999998
768 -5.421010862427522e-20 -0.07187499999999769 0.03749999999999998
769 0 -0.06979166666666244 0.03749999999999998
770 1.084202172485504e-19 0.005208333333334884 0.03749999999999998
771 -5.421010862427522e-20 0.06770833333332769 0.03749999999999998
772 -5.421010862427522e-20 -0.007291666666669605 0.03749999999999998
773 0 0.007291666666669606 0.03749999999999998
774 0 -0.06145833333333199 0.03749999999999998
775 0 0.06145833333333199 0.03749999999999998
776 3.503328269728457e-14 -0.01562499999996571 0.03749999999999998
777 0 0.05937499999999944 0.03749999999999998
778 4.085815886853364e-14 -0.01770833333329298 0.03749999999999998
779 -4.086086937566667e-14 0.01770833333329298 0.03749999999999998
780 4.213932443552774e-14 0.05729166666670979 0.03749999999999998
781 0 -0.01979166666666876 0.03749999999999998
782 0 0.01979166666666876 0.03749999999999998
783 -5.421010862427522e-20 -0.02187500000000192 0.03749999999999998
784 0 -0.05312499999999967 0.03749999999999998
785 5.96076284362796e-14 -0.02395833333327475 0.03749999999999998
786 6.064304151079223e-14 0.05104166666672784 0.03749999999999998
787 0 -0.02604166666666778 0.03749999999999998
788 6.627005078527836e-14 0.04895833333340052 0.03749999999999998
789 5.421010862427523e-20 -0.04895833333333381 0.03749999999999998
790 -5.308076428784063e-14 0.02812499999994856 0.03749999999999998
791 0 -0.04687499999999974 0.03749999999999998
792 0 -0.04479166666666617 0.03749999999999998
793 6.124151870044036e-14 -0.03229166666660661 0.03749999999999998
794 0 0.03229166666666759 0.03749999999999998
795 -6.138401554144073e-14 -0.04270833333339441 0.03749999999999998
796 0 0.03437500000000094 0.03749999999999998
797 6.59384074808218e-14 0.04062500000006557 0.03749999999999998
798 2.727026606931895e-14 -0.03645833333330729 0.03749999999999998
799 -2.726962071338012e-14 0.03645833333330729 0.03749999999999998
800 0 0.03854166666666685 0.03749999999999998
801 0 -0.03854166666666685 0.1125
802 -5.421010862427522e-20 0.03854166666666684 0.1125
803 0 0.03437500000000094 0.1125
804 0 0.04479166666666617 0.1125
805 -5.421010862427522e-20 -0.03020833333333474 0.1125
806 -5.421010862427522e-20 -0.04687499999999974 0.1125
807 -1.084202172485504e-19 0.0281250000000015 0.1125
808 0 -0.05104166666666689 0.1125
809 0 0.05104166666666688 0.1125
810 1.084202172485504e-19 0.0239583333333347 0.1125
811 -5.421010862427522e-20 0.02187500000000191 0.1125
812 0 0.05729166666666628 0.1125
813 0 -0.0177083333333353 0.1125
814 -5.421010862427522e-20 0.0177083333333353 0.1125
815 0 -0.05937499999999944 0.1125
816 -5.421010862427522e-20 0.05937499999999944 0.1125
817 -5.421010862427522e-20 -0.06145833333333199 0.1125
818 -5.421010862427522e-20 -0.01354166666666941 0.1125
819 -5.421010862427522e-20 -0.01145833333333704 0.1125
820 0 0.009375000000003988 0.1125
821 -5.421010862427522e-20 -0.06562499999999416 0.1125
822 -5.421010862427522e-20 0.007291666666669607 0.1125
823 5.421010862427522e-20 -0.06770833333332769 0.1125
824 -5.421010862427522e-20 0.06770833333332768 0.1125
825 0 0.005208333333334885 0.1125
826 0 -0.06979166666666244 0.1125
827 -1.084202172485504e-19 0.06979166666666244 0.1125
828 1.522532042325168e-15 -0.003125000000003123 0.1125
829 -1.522390466803302e-15 0.003125000000003123 0.1125
830 0 0.001041666666667269 0.1125
831 0 0.07395833333333016 0.1125
832 -5.421010862427522e-20 -0.07395833333333258 0.1125
833 0 -0.001041666666667269 0.1125
834 0 0.07187499999999769 0.1125
835 -5.421010862427522e-20 -0.07187499999999769 0.1125
836 1.084202172485504e-19 -0.005208333333334884 0.1125
837 -5.421010862427522e-20 -0.007291666666669605 0.1125
838 -5.421010862427522e-20 0.06562499999999416 0.1125
839 -5.421010862427522e-20 -0.009375000000003988 0.1125
840 0 0.01145833333333704 0.1125
841 0 0.06354166666666285 0.1125
842 0 -0.06354166666666286 0.1125
843 -3.016601962535657e-14 0.01354166666663811 0.1125
844 0 0.06145833333333199 0.1125
845 -3.503222390735541e-14 0.01562499999996571 0.1125
846 3.503328269728457e-14 -0.01562499999996571 0.1125
847 -4.21441242907597e-14 -0.05729166666670979 0.1125
848 0 -0.01979166666666876 0.1125
849 0 0.01979166666666876 0.1125
850 1.084202172485505e-19 -0.05520833333333283 0.1125
851 -5.421010862427522e-20 0.05520833333333282 0.1125
852 -5.421010862427522e-20 -0.02187500000000192 0.1125
853 0 0.05312499999999967 0.1125
854 0 -0.05312499999999967 0.1125
855 5.96076284362796e-14 -0.02395833333327475 0.1125
856 0 -0.02604166666666778 0.1125
857 0 0.02604166666666778 0.1125
858 6.627005078527836e-14 0.04895833333340052 0.1125
859 -1.084202172485504e-19 -0.0489583333333338 0.1125
860 5.30827551114418e-14 -0.02812499999994856 0.1125
861 4.620313333501135e-14 0.04687500000004562 0.1125
862 -5.720650972431683e-14 0.03020833333327787 0.1125
863 0 -0.04479166666666617 0.1125
864 6.124151870044036e-14 -0.03229166666660661 0.1125
865 0 0.03229166666666759 0.1125
866 6.138320103008097e-14 0.04270833333339441 0.1125
867 -6.138401554144073e-14 -0.04270833333339441 0.1125
868 6.585822404710662e-14 -0.03437499999993539 0.1125
869 -6.593741912864505e-14 -0.04062500000006557 0.1125
870 -5.421010862427522e-20 0.04062499999999997 0.1125
871 2.727026606931895e-14 -0.03645833333330729 0.1125
872 -2.726962071338012e-14 0.03645833333330729 0.1125
$EndNodes
$Elements
1760
1 15 2 0 1 1
2 15 2 0 2 2
3 15 2 0 3 3
4 15 2 0 4 4
5 15 2 0 5 5
6 15 2 0 6 6
7 15 2 0 7 7
8 15 2 0 8 8
9 15 2 0 9 9
10 15 2 0 10 10
11 15 2 0 11 11
12 15 2 0 12 12
13 15 2 0 13 13
14 15 2 0 14 14
15 15 2 0 15 15
16 15 2 0 16 16
17 15 2 0 17 17
18 15 2 0 18 18
19 15 2 0 19 19
20 15 2 0 20 20
21 15 2 0 21 21
22 15 2 0 22 22
23 15 2 0 23 23
24 15 2 0 24 24
25 1 2 0 1 1 25
26 1 2 0 1 25 26
27 1 2 0 1 26 27
28 1 2 0 1 27 28
29 1 2 0 1 28 29
30 1 2 0 1 29 30
31 1 2 0 1 30 31
32 1 2 0 1 31 32
33 1 2 0 1 32 33
34 1 2 0 1 33 34
35 1 2 0 1 34 35
36 1 2 0 1 35 36
37 1 2 0 1 36 37
38 1 2 0 1 37 38
39 1 2 0 1 38 39
40 1 2 0 1 39 40
41 1 2 0 1 40 41
42 1 2 0 1 41 42
43 1 2 0 1 42 43
44 1 2 0 1 43 44
45 1 2 0 1 44 45
46 1 2 0 1 45 46
47 1 2 0 1 46 47
48 1 2 0 1 47 48
49 1 2 0 1 48 49
50 1 2 0 1 49 50
51 1 2 0 1 50 51
52 1 2 0 1 51 52
53 1 2 0 1 52 53
54 1 2 0 1 53 54
55 1 2 0 1 54 55
56 1 2 0 1 55 56
57 1 2 0 1 56 57
58 1 2 0 1 57 58
59 1 2 0 1 58 59
60 1 2 0 1 59 2
61 1 2 0 2 2 60
62 1 2 0 2 60 61
63 1 2 0 2 61 62
64 1 2 0 2 62 63
65 1 2 0 2 63 64
66 1 2 0 2 64 65
67 1 2 0 2 65 66
68 1 2 0 2 66 67
69 1 2 0 2 67 68
70 1 2 0 2 68 69
71 1 2 0 2 69 70
72 1 2 0 2 70 71
73 1 2 0 2 71 72
74 1 2 0 2 72 73
75 1 2 0 2 73 74
76 1 2 0 2 74 75
77 1 2 0 2 75 76
78 1 2 0 2 76 77
79 1 2 0 2 77 78
80 1 2 0 2 78 79
81 1 2 0 2 79 80
82 1 2 0 2 80 81
83 1 2 0 2 81 82
84 1 2 0 2 82 83
85 1 2 0 2 83 84
86 1 2 0 2 84 85
87 1 2 0 2 85 86
88 1 2 0 2 86 87
89 1 2 0 2 87 88
90 1 2 0 2 88 89
91 1 2 0 2 89 90
92 1 2 0 2 90 91
93 1 2 0 2 91 92
94 1 2 0 2 92 93
95 1 2 0 2 93 94
96 1 2 0 2 94 3
97 1 2 0 3 3 6
98 1 2 0 4 6 95
99 1 2 0 4 95 96
100 1 2 0 4 96 97
101 1 2 0 4 97 98
102 1 2 0 4 98 99
103 1 2 0 4 99 100
104 1 2 0 4 100 101
105 1 2 0 4 101 102
106 1 2 0 4 102 103
107 1 2 0 4 103 104
108 1 2 0 4 104 105
109 1 2 0 4 105 106
110 1 2 0 4 106 107
111 1 2 0 4 107 108
112 1 2 0 4 108 109
113 1 2 0 4 109 110
114 1 2 0 4 110 111
115 1 2 0 4 111 112
116 1 2 0 4 112 113
117 1 2 0 4 113 114
118 1 2 0 4 114 115
119 1 2 0 4 115 116
120 1 2 0 4 116 117
121 1 2 0 4 117 118
122 1 2 0 4 118 119
123 1 2 0 4 119 120
124 1 2 0 4 120 121
125 1 2 0 4 121 122
126 1 2 0 4 122 123
127 1 2 0 4 123 124
128 1 2 0 4 124 125
129 1 2 0 4 125 126
130 1 2 0 4 126 127
131 1 2 0 4 127 128
132 1 2 0 4 128 129
133 1 2 0 4 129 5
134 1 2 0 5 5 130
135 1 2 0 5 130 131
136 1 2 0 5 131 132
137 1 2 0 5 132 133
138 1 2 0 5 133 134
139 1 2 0 5 134 135
140 1 2 0 5 135 136
141 1 2 0 5 136 137
142 1 2 0 5 137 138
143 1 2 0 5 138 139
144 1 2 0 5 139 140
145 1 2 0 5 140 141
146 1 2 0 5 141 142
147 1 2 0 5 142 143
148 1 2 0 5 143 144
149 1 2 0 5 144 145
150 1 2 0 5 145 146
151 1 2 0 5 146 147
152 1 2 0 5 147 148
153 1 2 0 5 148 149
154 1 2 0 5 149 150
155 1 2 0 5 150 151
156 1 2 0 5 151 152
157 1 2 0 5 152 153
158 1 2 0 5 153 154
159 1 2 0 5 154 155
160 1 2 0 5 155 156
161 1 2 0 5 156 157
162 1 2 0 5 157 158
163 1 2 0 5 158 159
164 1 2 0 5 159 160
165 1 2 0 5 160 161
166 1 2 0 5 161 162
167 1 2 0 5 162 163
168 1 2 0 5 163 164
169 1 2 0 5 164 4
170 1 2 0 6 4 1
171 1 2 0 7 7 165
172 1 2 0 7 165 166
173 1 2 0 7 166 167
174 1 2 0 7 167 168
175 1 2 0 7 168 169
176 1 2 0 7 169 170
177 1 2 0 7 170 171
178 1 2 0 7 171 172
179 1 2 0 7 172 173
180 1 2 0 7 173 174
181 1 2 0 7 174 175
182 1 2 0 7 175 176
183 1 2 0 7 176 177
184 1 2 0 7 177 178
185 1 2 0 7 178 179
186 1 2 0 7 179 180
187 1 2 0 7 180 181
188 1 2 0 7 181 182
189 1 2 0 7 182 183
190 1 2 0 7 183 184
191 1 2 0 7 184 185
192 1 2 0 7 185 186
193 1 2 0 7 186 187
194 1 2 0 7 187 188
195 1 2 0 7 188 189
196 1 2 0 7 189 190
197 1 2 0 7 190 191
198 1 2 0 7 191 192
199 1 2 0 7 192 193
200 1 2 0 7 193 194
201 1 2 0 7 194 195
202 1 2 0 7 195 196
203 1 2 0 7 196 197
204 1 2 0 7 197 198
205 1 2 0 7 198 199
206 1 2 0 7 199 8
207 1 2 0 8 8 200
208 1 2 0 8 200 201
209 1 2 0 8 201 202
210 1 2 0 8 202 203
211 1 2 0 8 203 204
212 1 2 0 8 204 205
213 1 2 0 8 205 206
214 1 2 0 8 206 207
215 1 2 0 8 207 208
216 1 2 0 8 208 209
217 1 2 0 8 209 210
218 1 2 0 8 210 211
219 1 2 0 8 211 212
220 1 2 0 8 212 213
221 1 2 0 8 213 214
222 1 2 0 8 214 215
223 1 2 0 8 215 216
224 1 2 0 8 216 217
225 1 2 0 8 217 218
226 1 2 0 8 218 219
227 1 2 0 8 219 220
228 1 2 0 8 220 221
229 1 2 0 8 221 222
230 1 2 0 8 222 223
231 1 2 0 8 223 224
232 1 2 0 8 224 225
233 1 2 0 8 225 226
234 1 2 0 8 226 227
235 1 2 0 8 227 228
236 1 2 0 8 228 229
237 1 2 0 8 229 230
238 1 2 0 8 230 231
239 1 2 0 8 231 232
240 1 2 0 8 232 233
241 1 2 0 8 233 234
242 1 2 0 8 234 9
243 1 2 0 9 9 12
244 1 2 0 10 12 235
245 1 2 0 10 235 236
246 1 2 0 10 236 237
247 1 2 0 10 237 238
248 1 2 0 10 238 239
249 1 2 0 10 239 240
250 1 2 0 10 240 241
251 1 2 0 10 241 242
252 1 2 0 10 242 243
253 1 2 0 10 243 244
254 1 2 0 10 244 245
255 1 2 0 10 245 246
256 1 2 0 10 246 247
257 1 2 0 10 247 248
258 1 2 0 10 248 249
259 1 2 0 10 249 250
260 1 2 0 10 250 251
261 1 2 0 10 251 252
262 1 2 0 10 252 253
263 1 2 0 10 253 254
264 1 2 0 10 254 255
265 1 2 0 10 255 256
266 1 2 0 10 256 257
267 1 2 0 10 257 258
268 1 2 0 10 258 259
269 1 2 0 10 259 260
270 1 2 0 10 260 261
271 1 2 0 10 261 262
272 1 2 0 10 262 263
273 1 2 0 10 263 264
274 1 2 0 10 264 265
275 1 2 0 10 265 266
276 1 2 0 10 266 267
277 1 2 0 10 267 268
278 1 2 0 10 268 269
279 1 2 0 10 269 11
280 1 2 0 11 11 270
281 1 2 0 11 270 271
282 1 2 0 11 271 272
283 1 2 0 11 272 273
284 1 2 0 11 273 274
285 1 2 0 11 274 275
286 1 2 0 11 275 276
287 1 2 0 11 276 277
288 1 2 0 11 277 278
289 1 2 0 11 278 279
290 1 2 0 11 279 280
291 1 2 0 11 280 281
292 1 2 0 11 281 282
293 1 2 0 11 282 283
294 1 2 0 11 283 284
295 1 2 0 11 284 285
296 1 2 0 11 285 286
297 1 2 0 11 286 287
298 1 2 0 11 287 288
299 1 2 0 11 288 289
300 1 2 0 11 289 290
301 1 2 0 11 290 291
302 1 2 0 11 291 292
303 1 2 0 11 292 293
304 1 2 0 11 293 294
305 1 2 0 11 294 295
306 1 2 0 11 295 296
307 1 2 0 11 296 297
308 1 2 0 11 297 298
309 1 2 0 11 298 299
310 1 2 0 11 299 300
311 1 2 0 11 300 301
312 1 2 0 11 301 302
313 1 2 0 11 302 303
314 1 2 0 11 303 304
315 1 2 0 11 304 10
316 1 2 0 12 10 7
317 1 2 0 13 13 305
318 1 2 0 13 305 306
319 1 2 0 13 306 307
320 1 2 0 13 307 308
321 1 2 0 13 308 309
322 1 2 0 13 309 310
323 1 2 0 13 310 311
324 1 2 0 13 311 312
325 1 2 0 13 312 313
326 1 2 0 13 313 314
327 1 2 0 13 314 315
328 1 2 0 13 315 316
329 1 2 0 13 316 317
330 1 2 0 13 317 318
331 1 2 0 13 318 319
332 1 2 0 13 319 320
333 1 2 0 13 320 321
334 1 2 0 13 321 322
335 1 2 0 13 322 323
336 1 2 0 13 323 324
337 1 2 0 13 324 325
338 1 2 0 13 325 326
339 1 2 0 13 326 327
340 1 2 0 13 327 328
341 1 2 0 13 328 329
342 1 2 0 13 329 330
343 1 2 0 13 330 331
344 1 2 0 13 331 332
345 1 2 0 13 332 333
346 1 2 0 13 333 334
347 1 2 0 13 334 335
348 1 2 0 13 335 336
349 1 2 0 13 336 337
350 1 2 0 13 337 338
351 1 2 0 13 338 339
352 1 2 0 13 339 14
353 1 2 0 14 14 340
354 1 2 0 14 340 341
355 1 2 0 14 341 342
356 1 2 0 14 342 343
357 1 2 0 14 343 344
358 1 2 0 14 344 345
359 1 2 0 14 345 346
360 1 2 0 14 346 347
361 1 2 0 14 347 348
362 1 2 0 14 348 349
363 1 2 0 14 349 350
364 1 2 0 14 350 351
365 1 2 0 14 351 352
366 1 2 0 14 352 353
367 1 2 0 14 353 354
368 1 2 0 14 354 355
369 1 2 0 14 355 356
370 1 2 0 14 356 357
371 1 2 0 14 357 358
372 1 2 0 14 358 359
373 1 2 0 14 359 360
374 1 2 0 14 360 361
375 1 2 0 14 361 362
376 1 2 0 14 362 363
377 1 2 0 14 363 364
378 1 2 0 14 364 365
379 1 2 0 14 365 366
380 1 2 0 14 366 367
381 1 2 0 14 367 368
382 1 2 0 14 368 369
383 1 2 0 14 369 370
384 1 2 0 14 370 371
385 1 2 0 14 371 372
386 1 2 0 14 372 373
387 1 2 0 14 373 374
388 1 2 0 14 374 15
389 1 2 0 15 15 18
390 1 2 0 16 18 375
391 1 2 0 16 375 376
392 1 2 0 16 376 377
393 1 2 0 16 377 378
394 1 2 0 16 378 379
395 1 2 0 16 379 380
396 1 2 0 16 380 381
397 1 2 0 16 381 382
398 1 2 0 16 382 383
399 1 2 0 16 383 384
400 1 2 0 16 384 385
401 1 2 0 16 385 386
402 1 2 0 16 386 387
403 1 2 0 16 387 388
404 1 2 0 16 388 389
405 1 2 0 16 389 390
406 1 2 0 16 390 391
407 1 2 0 16 391 392
408 1 2 0 16 392 393
409 1 2 0 16 393 394
410 1 2 0 16 394 395
411 1 2 0 16 395 396
412 1 2 0 16 396 397
413 1 2 0 16 397 398
414 1 2 0 16 398 399
415 1 2 0 16 399 400
416 1 2 0 16 400 401
417 1 2 0 16 401 402
418 1 2 0 16 402 403
419 1 2 0 16 403 404
420 1 2 0 16 404 405
421 1 2 0 16 405 406
422 1 2 0 16 406 407
423 1 2 0 16 407 408
424 1 2 0 16 408 409
425 1 2 0 16 409 17
426 1 2 0 17 17 410
427 1 2 0 17 410 411
428 1 2 0 17 411 412
429 1 2 0 17 412 413
430 1 2 0 17 413 414
431 1 2 0 17 414 415
432 1 2 0 17 415 416
433 1 2 0 17 416 417
434 1 2 0 17 417 418
435 1 2 0 17 418 419
436 1 2 0 17 419 420
437 1 2 0 17 420 421
438 1 2 0 17 421 422
439 1 2 0 17 422 423
440 1 2 0 17 423 424
441 1 2 0 17 424 425
442 1 2 0 17 425 426
443 1 2 0 17 426 427
444 1 2 0 17 427 428
445 1 2 0 17 428 429
446 1 2 0 17 429 430
447 1 2 0 17 430 431
448 1 2 0 17 431 432
449 1 2 0 17 432 433
450 1 2 0 17 433 434
451 1 2 0 17 434 435
452 1 2 0 17 435 436
453 1 2 0 17 436 437
454 1 2 0 17 437 438
455 1 2 0 17 438 439
456 1 2 0 17 439 440
457 1 2 0 17 440 441
458 1 2 0 17 441 442
459 1 2 0 17 442 443
460 1 2 0 17 443 444
461 1 2 0 17 444 16
462 1 2 0 18 16 13
463 1 2 0 19 19 445
464 1 2 0 19 445 446
465 1 2 0 19 446 447
466 1 2 0 19 447 448
467 1 2 0 19 448 449
468 1 2 0 19 449 450
469 1 2 0 19 450 451
470 1 2 0 19 451 452
471 1 2 0 19 452 453
472 1 2 0 19 453 454
473 1 2 0 19 454 455
474 1 2 0 19 455 456
475 1 2 0 19 456 457
476 1 2 0 19 457 458
477 1 2 0 19 458 459
478 1 2 0 19 459 460
479 1 2 0 19 460 461
480 1 2 0 19 461 462
481 1 2 0 19 462 463
482 1 2 0 19 463 464
483 1 2 0 19 464 465
484 1 2 0 19 465 466
485 1 2 0 19 466 467
486 1 2 0 19 467 468
487 1 2 0 19 468 469
488 1 2 0 19 469 470
489 1 2 0 19 470 471
490 1 2 0 19 471 472
491 1 2 0 19 472 473
492 1 2 0 19 473 474
493 1 2 0 19 474 475
494 1 2 0 19 475 476
495 1 2 0 19 476 477
496 1 2 0 19 477 478
497 1 2 0 19 478 479
498 1 2 0 19 479 20
499 1 2 0 20 20 480
500 1 2 0 20 480 481
501 1 2 0 20 481 482
502 1 2 0 20 482 483
503 1 2 0 20 483 484
504 1 2 0 20 484 485
505 1 2 0 20 485 486
506 1 2 0 20 486 487
507 1 2 0 20 487 488
508 1 2 0 20 488 489
509 1 2 0 20 489 490
510 1 2 0 20 490 491
511 1 2 0 20 491 492
512 1 2 0 20 492 493
513 1 2 0 20 493 494
514 1 2 0 20 494 495
515 1 2 0 20 495 496
516 1 2 0 20 496 497
517 1 2 0 20 497 498
518 1 2 0 20 498 499
519 1 2 0 20 499 500
520 1 2 0 20 500 501
521 1 2 0 20 501 502
522 1 2 0 20 502 503
523 1 2 0 20 503 504
524 1 2 0 20 504 505
525 1 2 0 20 505 506
526 1 2 0 20 506 507
527 1 2 0 20 507 508
528 1 2 0 20 508 509
529 1 2 0 20 509 510
530 1 2 0 20 510 511
531 1 2 0 20 511 512
532 1 2 0 20 512 513
533 1 2 0 20 513 514
534 1 2 0 20 514 21
535 1 2 0 21 21 24
536 1 2 0 22 24 515
537 1 2 0 22 515 516
538 1 2 0 22 516 517
539 1 2 0 22 517 518
540 1 2 0 22 518 519
541 1 2 0 22 519 520
542 1 2 0 22 520 521
543 1 2 0 22 521 522
544 1 2 0 22 522 523
545 1 2 0 22 523 524
546 1 2 0 22 524 525
547 1 2 0 22 525 526
548 1 2 0 22 526 527
549 1 2 0 22 527 528
550 1 2 0 22 528 529
551 1 2 0 22 529 530
552 1 2 0 22 530 531
553 1 2 0 22 531 532
554 1 2 0 22 532 533
555 1 2 0 22 533 534
556 1 2 0 22 534 535
557 1 2 0 22 535 536
558 1 2 0 22 536 537
559 1 2 0 22 537 538
560 1 2 0 22 538 539
561 1 2 0 22 539 540
562 1 2 0 22 540 541
563 1 2 0 22 541 542
564 1 2 0 22 542 543
565 1 2 0 22 543 544
566 1 2 0 22 544 545
567 1 2 0 22 545 546
568 1 2 0 22 546 547
569 1 2 0 22 547 548
570 1 2 0 22 548 549
571 1 2 0 22 549 23
572 1 2 0 23 23 550
573 1 2 0 23 550 551
574 1 2 0 23 551 552
575 1 2 0 23 552 553
576 1 2 0 23 553 554
577 1 2 0 23 554 555
578 1 2 0 23 555 556
579 1 2 0 23 556 557
580 1 2 0 23 557 558
581 1 2 0 23 558 559
582 1 2 0 23 559 560
583 1 2 0 23 560 561
584 1 2 0 23 561 562
585 1 2 0 23 562 563
586 1 2 0 23 563 564
587 1 2 0 23 564 565
588 1 2 0 23 565 566
589 1 2 0 23 566 567
590 1 2 0 23 567 568
591 1 2 0 23 568 569
592 1 2 0 23 569 570
593 1 2 0 23 570 571
594 1 2 0 23 571 572
595 1 2 0 23 572 573
596 1 2 0 23 573 574
597 1 2 0 23 574 575
598 1 2 0 23 575 576
599 1 2 0 23 576 577
600 1 2 0 23 577 578
601 1 2 0 23 578 579
602 1 2 0 23 579 580
603 1 2 0 23 580 581
604 1 2 0 23 581 582
605 1 2 0 23 582 583
606 1 2 0 23 583 584
607 1 2 0 23 584 22
608 1 2 0 24 22 19
609 2 2 0 1 113 114 591
610 2 2 0 1 44 45 653
611 2 2 0 1 114 115 654
612 2 2 0 1 79 80 655
613 2 2 0 1 46 47 597
614 2 2 0 1 81 82 596
615 2 2 0 1 152 153 649
616 2 2 0 1 117 118 599
617 2 2 0 1 80 81 652
618 2 2 0 1 155 156 643
619 2 2 0 1 120 121 605
620 2 2 0 1 156 157 608
621 2 2 0 1 118 119 600
622 2 2 0 1 84 85 602
623 2 2 0 1 49 50 644
624 2 2 0 1 119 120 603
625 2 2 0 1 157 158 609
626 2 2 0 1 52 53 611
627 2 2 0 1 126 127 622
628 2 2 0 1 55 56 617
629 2 2 0 1 91 92 636
630 2 2 0 1 160 161 620
631 2 2 0 1 158 159 612
632 2 2 0 1 88 89 613
633 2 2 0 1 53 54 639
634 2 2 0 1 123 124 614
635 2 2 0 1 59 2 628
636 2 2 0 1 129 5 629
637 2 2 0 1 159 160 616
638 2 2 0 1 94 3 627
639 2 2 0 1 164 4 626
640 2 2 0 1 54 55 638
641 2 2 0 1 92 93 634
642 2 2 0 1 162 163 625
643 2 2 0 1 161 162 623
644 2 2 0 1 57 58 624
645 2 2 0 1 127 128 635
646 2 2 0 1 56 57 621
647 2 2 0 1 58 59 632
648 2 2 0 1 90 91 619
649 2 2 0 1 125 126 618
650 2 2 0 1 128 129 633
651 2 2 0 1 93 94 630
652 2 2 0 1 163 164 631
653 2 2 0 1 41 42 656
654 2 2 0 1 111 112 585
655 2 2 0 1 76 77 586
656 2 2 0 1 146 147 587
657 2 2 0 1 51 52 641
658 2 2 0 1 121 122 642
659 2 2 0 1 86 87 607
660 2 2 0 1 37 38 595
661 2 2 0 1 50 51 606
662 2 2 0 1 85 86 604
663 2 2 0 1 122 123 640
664 2 2 0 1 87 88 610
665 2 2 0 1 89 90 615
666 2 2 0 1 124 125 637
667 2 2 0 1 40 41 589
668 2 2 0 1 110 111 588
669 2 2 0 1 145 146 590
670 2 2 0 1 72 73 650
671 2 2 0 1 47 48 598
672 2 2 0 1 82 83 648
673 2 2 0 1 39 40 592
674 2 2 0 1 154 155 601
675 2 2 0 1 38 39 593
676 2 2 0 1 73 74 651
677 2 2 0 1 143 144 594
678 2 2 0 1 116 117 650
679 2 2 0 1 151 152 595
680 2 2 0 1 48 49 645
681 2 2 0 1 83 84 647
682 2 2 0 1 153 154 646
683 2 2 0 1 25 26 631
684 2 2 0 1 95 96 630
685 2 2 0 1 106 107 648
686 2 2 0 1 141 142 598
687 2 2 0 1 26 27 625
688 2 2 0 1 96 97 634
689 2 2 0 1 43 44 590
690 2 2 0 1 149 150 592
691 2 2 0 1 78 79 588
692 2 2 0 1 148 149 589
693 2 2 0 1 35 36 646
694 2 2 0 1 105 106 647
695 2 2 0 1 140 141 645
696 2 2 0 1 34 35 601
697 2 2 0 1 45 46 594
698 2 2 0 1 115 116 651
699 2 2 0 1 150 151 593
700 2 2 0 1 103 104 604
701 2 2 0 1 132 133 621
702 2 2 0 1 138 139 606
703 2 2 0 1 102 103 607
704 2 2 0 1 61 62 635
705 2 2 0 1 131 132 624
706 2 2 0 1 67 68 642
707 2 2 0 1 137 138 641
708 2 2 0 1 63 64 618
709 2 2 0 1 101 102 610
710 2 2 0 1 66 67 640
711 2 2 0 1 1 25 626
712 2 2 0 1 6 95 627
713 2 2 0 1 2 60 629
714 2 2 0 1 64 65 637
715 2 2 0 1 60 61 633
716 2 2 0 1 42 43 587
717 2 2 0 1 112 113 586
718 2 2 0 1 27 28 623
719 2 2 0 1 77 78 585
720 2 2 0 1 147 148 656
721 2 2 0 1 5 130 628
722 2 2 0 1 98 99 619
723 2 2 0 1 62 63 622
724 2 2 0 1 130 131 632
725 2 2 0 1 97 98 636
726 2 2 0 1 133 134 617
727 2 2 0 1 28 29 620
728 2 2 0 1 65 66 614
729 2 2 0 1 135 136 639
730 2 2 0 1 134 135 638
731 2 2 0 1 100 101 613
732 2 2 0 1 30 31 612
733 2 2 0 1 136 137 611
734 2 2 0 1 31 32 609
735 2 2 0 1 99 100 615
736 2 2 0 1 107 108 596
737 2 2 0 1 32 33 608
738 2 2 0 1 68 69 605
739 2 2 0 1 33 34 643
740 2 2 0 1 69 70 603
741 2 2 0 1 139 140 644
742 2 2 0 1 104 105 602
743 2 2 0 1 142 143 597
744 2 2 0 1 70 71 600
745 2 2 0 1 71 72 599
746 2 2 0 1 36 37 649
747 2 2 0 1 108 109 652
748 2 2 0 1 109 110 655
749 2 2 0 1 74 75 654
750 2 2 0 1 144 145 653
751 2 2 0 1 75 76 591
752 2 2 0 1 29 30 616
753 2 2 0 1 42 147 656
754 2 2 0 1 78 111 585
755 2 2 0 1 43 146 587
756 2 2 0 1 113 76 586
757 2 2 0 1 149 40 589
758 2 2 0 1 79 110 588
759 2 2 0 1 76 113 591
760 2 2 0 1 44 145 590
761 2 2 0 1 150 39 592
762 2 2 0 1 80 109 655
763 2 2 0 1 45 144 653
764 2 2 0 1 115 74 654
765 2 2 0 1 151 38 593
766 2 2 0 1 81 108 652
767 2 2 0 1 74 115 651
768 2 2 0 1 46 143 594
769 2 2 0 1 108 81 596
770 2 2 0 1 152 37 595
771 2 2 0 1 143 46 597
772 2 2 0 1 73 116 650
773 2 2 0 1 153 36 649
774 2 2 0 1 107 82 648
775 2 2 0 1 72 117 599
776 2 2 0 1 48 141 598
777 2 2 0 1 36 153 646
778 2 2 0 1 106 83 647
779 2 2 0 1 141 48 645
780 2 2 0 1 71 118 600
781 2 2 0 1 105 84 602
782 2 2 0 1 155 34 601
783 2 2 0 1 50 139 644
784 2 2 0 1 70 119 603
785 2 2 0 1 156 33 643
786 2 2 0 1 86 103 604
787 2 2 0 1 69 120 605
788 2 2 0 1 51 138 606
789 2 2 0 1 87 102 607
790 2 2 0 1 33 156 608
791 2 2 0 1 138 51 641
792 2 2 0 1 68 121 642
793 2 2 0 1 88 101 610
794 2 2 0 1 32 157 609
795 2 2 0 1 137 52 611
796 2 2 0 1 67 122 640
797 2 2 0 1 31 158 612
798 2 2 0 1 101 88 613
799 2 2 0 1 54 135 639
800 2 2 0 1 66 123 614
801 2 2 0 1 65 124 637
802 2 2 0 1 55 134 638
803 2 2 0 1 90 99 615
804 2 2 0 1 30 159 616
805 2 2 0 1 126 63 618
806 2 2 0 1 134 55 617
807 2 2 0 1 29 160 620
808 2 2 0 1 91 98 619
809 2 2 0 1 57 132 621
810 2 2 0 1 63 126 622
811 2 2 0 1 162 27 623
812 2 2 0 1 92 97 636
813 2 2 0 1 58 131 624
814 2 2 0 1 62 127 635
815 2 2 0 1 97 92 634
816 2 2 0 1 163 26 625
817 2 2 0 1 59 130 632
818 2 2 0 1 61 128 633
819 2 2 0 1 26 163 631
820 2 2 0 1 96 93 630
821 2 2 0 1 25 164 626
822 2 2 0 1 95 94 627
823 2 2 0 1 2 5 628
824 2 2 0 1 60 129 629
825 2 2 0 1 4 1 626
826 2 2 0 1 3 6 627
827 2 2 0 1 5 2 629
828 2 2 0 1 130 59 628
829 2 2 0 1 164 25 631
830 2 2 0 1 94 95 630
831 2 2 0 1 131 58 632
832 2 2 0 1 129 60 633
833 2 2 0 1 27 162 625
834 2 2 0 1 93 96 634
835 2 2 0 1 132 57 624
836 2 2 0 1 128 61 635
837 2 2 0 1 28 161 623
838 2 2 0 1 98 91 636
839 2 2 0 1 133 56 621
840 2 2 0 1 127 62 622
841 2 2 0 1 99 90 619
842 2 2 0 1 161 28 620
843 2 2 0 1 56 133 617
844 2 2 0 1 64 125 618
845 2 2 0 1 135 54 638
846 2 2 0 1 125 64 637
847 2 2 0 1 160 29 616
848 2 2 0 1 100 89 615
849 2 2 0 1 136 53 639
850 2 2 0 1 124 65 614
851 2 2 0 1 159 30 612
852 2 2 0 1 89 100 613
853 2 2 0 1 53 136 611
854 2 2 0 1 123 66 640
855 2 2 0 1 158 31 609
856 2 2 0 1 102 87 610
857 2 2 0 1 52 137 641
858 2 2 0 1 122 67 642
859 2 2 0 1 157 32 608
860 2 2 0 1 103 86 607
861 2 2 0 1 139 50 606
862 2 2 0 1 121 68 605
863 2 2 0 1 104 85 604
864 2 2 0 1 34 155 643
865 2 2 0 1 120 69 603
866 2 2 0 1 140 49 644
867 2 2 0 1 35 154 601
868 2 2 0 1 85 104 602
869 2 2 0 1 119 70 600
870 2 2 0 1 49 140 645
871 2 2 0 1 154 35 646
872 2 2 0 1 84 105 647
873 2 2 0 1 142 47 598
874 2 2 0 1 118 71 599
875 2 2 0 1 83 106 648
876 2 2 0 1 37 152 649
877 2 2 0 1 47 142 597
878 2 2 0 1 117 72 650
879 2 2 0 1 38 151 595
880 2 2 0 1 82 107 596
881 2 2 0 1 144 45 594
882 2 2 0 1 116 73 651
883 2 2 0 1 39 150 593
884 2 2 0 1 109 80 652
885 2 2 0 1 145 44 653
886 2 2 0 1 75 114 654
887 2 2 0 1 40 149 592
888 2 2 0 1 110 79 655
889 2 2 0 1 146 43 590
890 2 2 0 1 114 75 591
891 2 2 0 1 41 148 589
892 2 2 0 1 111 78 588
893 2 2 0 1 147 42 587
894 2 2 0 1 77 112 586
895 2 2 0 1 148 41 656
896 2 2 0 1 112 77 585
897 2 2 0 2 183 184 660
898 2 2 0 2 253 254 725
899 2 2 0 2 184 185 663
900 2 2 0 2 254 255 724
901 2 2 0 2 256 257 666
902 2 2 0 2 291 292 720
903 2 2 0 2 292 293 718
904 2 2 0 2 257 258 716
905 2 2 0 2 217 218 728
906 2 2 0 2 287 288 657
907 2 2 0 2 290 291 723
908 2 2 0 2 295 296 672
909 2 2 0 2 260 261 674
910 2 2 0 2 190 191 711
911 2 2 0 2 226 227 675
912 2 2 0 2 223 224 668
913 2 2 0 2 261 262 676
914 2 2 0 2 258 259 669
915 2 2 0 2 224 225 713
916 2 2 0 2 259 260 712
917 2 2 0 2 227 228 708
918 2 2 0 2 192 193 677
919 2 2 0 2 266 267 687
920 2 2 0 2 231 232 688
921 2 2 0 2 197 198 699
922 2 2 0 2 298 299 678
923 2 2 0 2 228 229 705
924 2 2 0 2 193 194 680
925 2 2 0 2 263 264 679
926 2 2 0 2 199 8 695
927 2 2 0 2 304 10 693
928 2 2 0 2 269 11 696
929 2 2 0 2 234 9 694
930 2 2 0 2 194 195 682
931 2 2 0 2 264 265 681
932 2 2 0 2 232 233 698
933 2 2 0 2 302 303 689
934 2 2 0 2 301 302 701
935 2 2 0 2 267 268 700
936 2 2 0 2 196 197 686
937 2 2 0 2 233 234 697
938 2 2 0 2 303 304 692
939 2 2 0 2 230 231 684
940 2 2 0 2 300 301 685
941 2 2 0 2 195 196 703
942 2 2 0 2 265 266 702
943 2 2 0 2 198 199 690
944 2 2 0 2 268 269 691
945 2 2 0 2 216 217 658
946 2 2 0 2 286 287 659
947 2 2 0 2 191 192 709
948 2 2 0 2 296 297 710
949 2 2 0 2 247 248 721
950 2 2 0 2 225 226 673
951 2 2 0 2 262 263 706
952 2 2 0 2 297 298 707
953 2 2 0 2 229 230 683
954 2 2 0 2 299 300 704
955 2 2 0 2 180 181 727
956 2 2 0 2 250 251 726
957 2 2 0 2 282 283 719
958 2 2 0 2 187 188 667
959 2 2 0 2 222 223 717
960 2 2 0 2 179 180 662
961 2 2 0 2 249 250 661
962 2 2 0 2 189 190 671
963 2 2 0 2 294 295 670
964 2 2 0 2 248 249 664
965 2 2 0 2 213 214 722
966 2 2 0 2 283 284 665
967 2 2 0 2 186 187 719
968 2 2 0 2 221 222 721
969 2 2 0 2 188 189 714
970 2 2 0 2 293 294 715
971 2 2 0 2 246 247 717
972 2 2 0 2 281 282 667
973 2 2 0 2 166 167 689
974 2 2 0 2 236 237 698
975 2 2 0 2 219 220 661
976 2 2 0 2 289 290 662
977 2 2 0 2 218 219 726
978 2 2 0 2 288 289 727
979 2 2 0 2 175 176 715
980 2 2 0 2 165 166 692
981 2 2 0 2 235 236 697
982 2 2 0 2 280 281 714
983 2 2 0 2 174 175 670
984 2 2 0 2 279 280 671
985 2 2 0 2 185 186 665
986 2 2 0 2 255 256 722
987 2 2 0 2 220 221 664
988 2 2 0 2 243 244 673
989 2 2 0 2 272 273 686
990 2 2 0 2 172 173 710
991 2 2 0 2 201 202 700
992 2 2 0 2 277 278 709
993 2 2 0 2 203 204 702
994 2 2 0 2 273 274 703
995 2 2 0 2 171 172 707
996 2 2 0 2 206 207 706
997 2 2 0 2 12 235 694
998 2 2 0 2 7 165 693
999 2 2 0 2 8 200 696
1000 2 2 0 2 200 201 691
1001 2 2 0 2 270 271 690
1002 2 2 0 2 182 183 659
1003 2 2 0 2 252 253 658
1004 2 2 0 2 167 168 701
1005 2 2 0 2 11 270 695
1006 2 2 0 2 168 169 685
1007 2 2 0 2 238 239 684
1008 2 2 0 2 271 272 699
1009 2 2 0 2 202 203 687
1010 2 2 0 2 237 238 688
1011 2 2 0 2 205 206 679
1012 2 2 0 2 275 276 680
1013 2 2 0 2 204 205 681
1014 2 2 0 2 274 275 682
1015 2 2 0 2 240 241 705
1016 2 2 0 2 170 171 678
1017 2 2 0 2 276 277 677
1018 2 2 0 2 241 242 708
1019 2 2 0 2 169 170 704
1020 2 2 0 2 239 240 683
1021 2 2 0 2 177 178 720
1022 2 2 0 2 207 208 676
1023 2 2 0 2 242 243 675
1024 2 2 0 2 208 209 674
1025 2 2 0 2 278 279 711
1026 2 2 0 2 173 174 672
1027 2 2 0 2 209 210 712
1028 2 2 0 2 244 245 713
1029 2 2 0 2 212 213 666
1030 2 2 0 2 210 211 669
1031 2 2 0 2 245 246 668
1032 2 2 0 2 211 212 716
1033 2 2 0 2 176 177 718
1034 2 2 0 2 178 179 723
1035 2 2 0 2 181 182 657
1036 2 2 0 2 251 252 728
1037 2 2 0 2 214 215 724
1038 2 2 0 2 284 285 663
1039 2 2 0 2 215 216 725
1040 2 2 0 2 285 286 660
1041 2 2 0 2 182 287 657
1042 2 2 0 2 218 251 728
1043 2 2 0 2 183 286 659
1044 2 2 0 2 253 216 658
1045 2 2 0 2 181 288 727
1046 2 2 0 2 251 218 726
1047 2 2 0 2 286 183 660
1048 2 2 0 2 254 215 725
1049 2 2 0 2 290 179 662
1050 2 2 0 2 220 249 661
1051 2 2 0 2 255 214 724
1052 2 2 0 2 285 184 663
1053 2 2 0 2 291 178 723
1054 2 2 0 2 221 248 664
1055 2 2 0 2 186 283 665
1056 2 2 0 2 214 255 722
1057 2 2 0 2 248 221 721
1058 2 2 0 2 292 177 720
1059 2 2 0 2 283 186 719
1060 2 2 0 2 213 256 666
1061 2 2 0 2 293 176 718
1062 2 2 0 2 247 222 717
1063 2 2 0 2 188 281 667
1064 2 2 0 2 258 211 716
1065 2 2 0 2 176 293 715
1066 2 2 0 2 246 223 668
1067 2 2 0 2 211 258 669
1068 2 2 0 2 281 188 714
1069 2 2 0 2 295 174 670
1070 2 2 0 2 225 244 713
1071 2 2 0 2 190 279 671
1072 2 2 0 2 260 209 712
1073 2 2 0 2 174 295 672
1074 2 2 0 2 226 243 673
1075 2 2 0 2 191 278 711
1076 2 2 0 2 209 260 674
1077 2 2 0 2 173 296 710
1078 2 2 0 2 243 226 675
1079 2 2 0 2 278 191 709
1080 2 2 0 2 208 261 676
1081 2 2 0 2 228 241 708
1082 2 2 0 2 172 297 707
1083 2 2 0 2 277 192 677
1084 2 2 0 2 207 262 706
1085 2 2 0 2 171 298 678
1086 2 2 0 2 229 240 705
1087 2 2 0 2 276 193 680
1088 2 2 0 2 206 263 679
1089 2 2 0 2 275 194 682
1090 2 2 0 2 205 264 681
1091 2 2 0 2 230 239 683
1092 2 2 0 2 170 299 704
1093 2 2 0 2 274 195 703
1094 2 2 0 2 204 265 702
1095 2 2 0 2 301 168 685
1096 2 2 0 2 231 238 684
1097 2 2 0 2 197 272 686
1098 2 2 0 2 203 266 687
1099 2 2 0 2 168 301 701
1100 2 2 0 2 238 231 688
1101 2 2 0 2 198 271 699
1102 2 2 0 2 202 267 700
1103 2 2 0 2 237 232 698
1104 2 2 0 2 303 166 689
1105 2 2 0 2 199 270 690
1106 2 2 0 2 269 200 691
1107 2 2 0 2 234 235 697
1108 2 2 0 2 166 303 692
1109 2 2 0 2 165 304 693
1110 2 2 0 2 235 234 694
1111 2 2 0 2 8 11 695
1112 2 2 0 2 200 269 696
1113 2 2 0 2 10 7 693
1114 2 2 0 2 9 12 694
1115 2 2 0 2 11 8 696
1116 2 2 0 2 270 199 695
1117 2 2 0 2 304 165 692
1118 2 2 0 2 236 233 697
1119 2 2 0 2 271 198 690
1120 2 2 0 2 201 268 691
1121 2 2 0 2 167 302 689
1122 2 2 0 2 233 236 698
1123 2 2 0 2 272 197 699
1124 2 2 0 2 268 201 700
1125 2 2 0 2 302 167 701
1126 2 2 0 2 232 237 688
1127 2 2 0 2 273 196 686
1128 2 2 0 2 267 202 687
1129 2 2 0 2 169 300 685
1130 2 2 0 2 239 230 684
1131 2 2 0 2 196 273 703
1132 2 2 0 2 266 203 702
1133 2 2 0 2 195 274 682
1134 2 2 0 2 265 204 681
1135 2 2 0 2 300 169 704
1136 2 2 0 2 240 229 683
1137 2 2 0 2 194 275 680
1138 2 2 0 2 264 205 679
1139 2 2 0 2 241 228 705
1140 2 2 0 2 299 170 678
1141 2 2 0 2 193 276 677
1142 2 2 0 2 263 206 706
1143 2 2 0 2 298 171 707
1144 2 2 0 2 242 227 708
1145 2 2 0 2 192 277 709
1146 2 2 0 2 262 207 676
1147 2 2 0 2 297 172 710
1148 2 2 0 2 227 242 675
1149 2 2 0 2 279 190 711
1150 2 2 0 2 261 208 674
1151 2 2 0 2 244 225 673
1152 2 2 0 2 296 173 672
1153 2 2 0 2 210 259 712
1154 2 2 0 2 280 189 671
1155 2 2 0 2 175 294 670
1156 2 2 0 2 245 224 713
1157 2 2 0 2 189 280 714
1158 2 2 0 2 259 210 669
1159 2 2 0 2 294 175 715
1160 2 2 0 2 224 245 668
1161 2 2 0 2 282 187 667
1162 2 2 0 2 212 257 716
1163 2 2 0 2 223 246 717
1164 2 2 0 2 177 292 718
1165 2 2 0 2 187 282 719
1166 2 2 0 2 257 212 666
1167 2 2 0 2 178 291 720
1168 2 2 0 2 222 247 721
1169 2 2 0 2 284 185 665
1170 2 2 0 2 256 213 722
1171 2 2 0 2 179 290 723
1172 2 2 0 2 249 220 664
1173 2 2 0 2 185 284 663
1174 2 2 0 2 215 254 724
1175 2 2 0 2 180 289 662
1176 2 2 0 2 250 219 661
1177 2 2 0 2 216 253 725
1178 2 2 0 2 184 285 660
1179 2 2 0 2 289 180 727
1180 2 2 0 2 219 250 726
1181 2 2 0 2 287 182 659
1182 2 2 0 2 217 252 658
1183 2 2 0 2 288 181 657
1184 2 2 0 2 252 217 728
1185 2 2 0 3 323 324 731
1186 2 2 0 3 393 394 796
1187 2 2 0 3 394 395 794
1188 2 2 0 3 326 327 737
1189 2 2 0 3 361 362 736
1190 2 2 0 3 431 432 791
1191 2 2 0 3 432 433 789
1192 2 2 0 3 327 328 787
1193 2 2 0 3 397 398 738
1194 2 2 0 3 357 358 800
1195 2 2 0 3 427 428 729
1196 2 2 0 3 395 396 734
1197 2 2 0 3 430 431 792
1198 2 2 0 3 435 436 743
1199 2 2 0 3 400 401 782
1200 2 2 0 3 330 331 781
1201 2 2 0 3 436 437 745
1202 2 2 0 3 433 434 739
1203 2 2 0 3 398 399 740
1204 2 2 0 3 364 365 741
1205 2 2 0 3 434 435 784
1206 2 2 0 3 329 330 783
1207 2 2 0 3 399 400 742
1208 2 2 0 3 437 438 746
1209 2 2 0 3 367 368 777
1210 2 2 0 3 336 337 772
1211 2 2 0 3 335 336 754
1212 2 2 0 3 405 406 755
1213 2 2 0 3 371 372 771
1214 2 2 0 3 370 371 756
1215 2 2 0 3 438 439 774
1216 2 2 0 3 368 369 775
1217 2 2 0 3 333 334 749
1218 2 2 0 3 403 404 748
1219 2 2 0 3 339 14 766
1220 2 2 0 3 409 17 763
1221 2 2 0 3 444 16 764
1222 2 2 0 3 439 440 753
1223 2 2 0 3 374 15 765
1224 2 2 0 3 334 335 751
1225 2 2 0 3 404 405 750
1226 2 2 0 3 372 373 760
1227 2 2 0 3 442 443 769
1228 2 2 0 3 441 442 758
1229 2 2 0 3 337 338 759
1230 2 2 0 3 407 408 770
1231 2 2 0 3 406 407 773
1232 2 2 0 3 440 441 757
1233 2 2 0 3 338 339 761
1234 2 2 0 3 408 409 762
1235 2 2 0 3 373 374 767
1236 2 2 0 3 443 444 768
1237 2 2 0 3 356 357 799
1238 2 2 0 3 426 427 798
1239 2 2 0 3 331 332 778
1240 2 2 0 3 401 402 779
1241 2 2 0 3 366 367 780
1242 2 2 0 3 365 366 744
1243 2 2 0 3 402 403 747
1244 2 2 0 3 332 333 776
1245 2 2 0 3 369 370 752
1246 2 2 0 3 320 321 730
1247 2 2 0 3 390 391 797
1248 2 2 0 3 352 353 790
1249 2 2 0 3 362 363 788
1250 2 2 0 3 319 320 795
1251 2 2 0 3 389 390 732
1252 2 2 0 3 424 425 793
1253 2 2 0 3 388 389 733
1254 2 2 0 3 423 424 735
1255 2 2 0 3 396 397 790
1256 2 2 0 3 328 329 785
1257 2 2 0 3 363 364 786
1258 2 2 0 3 305 306 768
1259 2 2 0 3 375 376 767
1260 2 2 0 3 386 387 788
1261 2 2 0 3 324 325 793
1262 2 2 0 3 306 307 769
1263 2 2 0 3 376 377 760
1264 2 2 0 3 359 360 732
1265 2 2 0 3 429 430 795
1266 2 2 0 3 358 359 797
1267 2 2 0 3 428 429 730
1268 2 2 0 3 385 386 786
1269 2 2 0 3 420 421 785
1270 2 2 0 3 325 326 735
1271 2 2 0 3 360 361 733
1272 2 2 0 3 383 384 744
1273 2 2 0 3 342 343 773
1274 2 2 0 3 382 383 780
1275 2 2 0 3 341 342 770
1276 2 2 0 3 411 412 759
1277 2 2 0 3 347 348 779
1278 2 2 0 3 417 418 778
1279 2 2 0 3 346 347 747
1280 2 2 0 3 416 417 776
1281 2 2 0 3 18 375 765
1282 2 2 0 3 13 305 764
1283 2 2 0 3 340 341 762
1284 2 2 0 3 410 411 761
1285 2 2 0 3 322 323 798
1286 2 2 0 3 392 393 799
1287 2 2 0 3 307 308 758
1288 2 2 0 3 14 340 763
1289 2 2 0 3 17 410 766
1290 2 2 0 3 308 309 757
1291 2 2 0 3 412 413 772
1292 2 2 0 3 377 378 771
1293 2 2 0 3 343 344 755
1294 2 2 0 3 413 414 754
1295 2 2 0 3 378 379 756
1296 2 2 0 3 345 346 748
1297 2 2 0 3 415 416 749
1298 2 2 0 3 344 345 750
1299 2 2 0 3 414 415 751
1300 2 2 0 3 380 381 775
1301 2 2 0 3 310 311 774
1302 2 2 0 3 381 382 777
1303 2 2 0 3 311 312 746
1304 2 2 0 3 379 380 752
1305 2 2 0 3 317 318 791
1306 2 2 0 3 387 388 736
1307 2 2 0 3 312 313 745
1308 2 2 0 3 348 349 782
1309 2 2 0 3 418 419 781
1310 2 2 0 3 313 314 743
1311 2 2 0 3 349 350 742
1312 2 2 0 3 419 420 783
1313 2 2 0 3 314 315 784
1314 2 2 0 3 384 385 741
1315 2 2 0 3 422 423 737
1316 2 2 0 3 350 351 740
1317 2 2 0 3 315 316 739
1318 2 2 0 3 351 352 738
1319 2 2 0 3 421 422 787
1320 2 2 0 3 316 317 789
1321 2 2 0 3 318 319 792
1322 2 2 0 3 321 322 729
1323 2 2 0 3 391 392 800
1324 2 2 0 3 353 354 734
1325 2 2 0 3 354 355 794
1326 2 2 0 3 355 356 796
1327 2 2 0 3 425 426 731
1328 2 2 0 3 309 310 753
1329 2 2 0 3 322 427 729
1330 2 2 0 3 358 391 800
1331 2 2 0 3 427 322 798
1332 2 2 0 3 357 392 799
1333 2 2 0 3 391 358 797
1334 2 2 0 3 429 320 730
1335 2 2 0 3 426 323 731
1336 2 2 0 3 394 355 796
1337 2 2 0 3 360 389 732
1338 2 2 0 3 320 429 795
1339 2 2 0 3 395 354 794
1340 2 2 0 3 425 324 793
1341 2 2 0 3 431 318 792
1342 2 2 0 3 361 388 733
1343 2 2 0 3 326 423 735
1344 2 2 0 3 354 395 734
1345 2 2 0 3 388 361 736
1346 2 2 0 3 432 317 791
1347 2 2 0 3 423 326 737
1348 2 2 0 3 353 396 790
1349 2 2 0 3 433 316 789
1350 2 2 0 3 387 362 788
1351 2 2 0 3 328 421 787
1352 2 2 0 3 352 397 738
1353 2 2 0 3 316 433 739
1354 2 2 0 3 386 363 786
1355 2 2 0 3 421 328 785
1356 2 2 0 3 351 398 740
1357 2 2 0 3 385 364 741
1358 2 2 0 3 435 314 784
1359 2 2 0 3 330 419 783
1360 2 2 0 3 350 399 742
1361 2 2 0 3 314 435 743
1362 2 2 0 3 366 383 744
1363 2 2 0 3 331 418 781
1364 2 2 0 3 401 348 782
1365 2 2 0 3 313 436 745
1366 2 2 0 3 383 366 780
1367 2 2 0 3 418 331 778
1368 2 2 0 3 348 401 779
1369 2 2 0 3 368 381 777
1370 2 2 0 3 312 437 746
1371 2 2 0 3 417 332 776
1372 2 2 0 3 403 346 747
1373 2 2 0 3 439 310 774
1374 2 2 0 3 369 380 775
1375 2 2 0 3 416 333 749
1376 2 2 0 3 346 403 748
1377 2 2 0 3 415 334 751
1378 2 2 0 3 345 404 750
1379 2 2 0 3 370 379 752
1380 2 2 0 3 310 439 753
1381 2 2 0 3 414 335 754
1382 2 2 0 3 344 405 755
1383 2 2 0 3 379 370 756
1384 2 2 0 3 441 308 757
1385 2 2 0 3 337 412 772
1386 2 2 0 3 343 406 773
1387 2 2 0 3 442 307 758
1388 2 2 0 3 372 377 771
1389 2 2 0 3 338 411 759
1390 2 2 0 3 342 407 770
1391 2 2 0 3 307 442 769
1392 2 2 0 3 373 376 760
1393 2 2 0 3 339 410 761
1394 2 2 0 3 409 340 762
1395 2 2 0 3 306 443 768
1396 2 2 0 3 376 373 767
1397 2 2 0 3 305 444 764
1398 2 2 0 3 375 374 765
1399 2 2 0 3 14 17 766
1400 2 2 0 3 340 409 763
1401 2 2 0 3 15 18 765
1402 2 2 0 3 16 13 764
1403 2 2 0 3 17 14 763
1404 2 2 0 3 410 339 766
1405 2 2 0 3 444 305 768
1406 2 2 0 3 374 375 767
1407 2 2 0 3 411 338 761
1408 2 2 0 3 341 408 762
1409 2 2 0 3 377 372 760
1410 2 2 0 3 443 306 769
1411 2 2 0 3 412 337 759
1412 2 2 0 3 408 341 770
1413 2 2 0 3 308 441 758
1414 2 2 0 3 378 371 771
1415 2 2 0 3 413 336 772
1416 2 2 0 3 407 342 773
1417 2 2 0 3 309 440 757
1418 2 2 0 3 371 378 756
1419 2 2 0 3 336 413 754
1420 2 2 0 3 406 343 755
1421 2 2 0 3 335 414 751
1422 2 2 0 3 405 344 750
1423 2 2 0 3 440 309 753
1424 2 2 0 3 380 369 752
1425 2 2 0 3 334 415 749
1426 2 2 0 3 404 345 748
1427 2 2 0 3 311 438 774
1428 2 2 0 3 381 368 775
1429 2 2 0 3 347 402 747
1430 2 2 0 3 333 416 776
1431 2 2 0 3 438 311 746
1432 2 2 0 3 382 367 777
1433 2 2 0 3 332 417 778
1434 2 2 0 3 402 347 779
1435 2 2 0 3 437 312 745
1436 2 2 0 3 367 382 780
1437 2 2 0 3 419 330 781
1438 2 2 0 3 349 400 782
1439 2 2 0 3 384 365 744
1440 2 2 0 3 436 313 743
1441 2 2 0 3 400 349 742
1442 2 2 0 3 420 329 783
1443 2 2 0 3 315 434 784
1444 2 2 0 3 365 384 741
1445 2 2 0 3 329 420 785
1446 2 2 0 3 399 350 740
1447 2 2 0 3 434 315 739
1448 2 2 0 3 364 385 786
1449 2 2 0 3 422 327 787
1450 2 2 0 3 398 351 738
1451 2 2 0 3 363 386 788
1452 2 2 0 3 317 432 789
1453 2 2 0 3 327 422 737
1454 2 2 0 3 397 352 790
1455 2 2 0 3 318 431 791
1456 2 2 0 3 362 387 736
1457 2 2 0 3 424 325 735
1458 2 2 0 3 396 353 734
1459 2 2 0 3 319 430 792
1460 2 2 0 3 389 360 733
1461 2 2 0 3 325 424 793
1462 2 2 0 3 355 394 794
1463 2 2 0 3 430 319 795
1464 2 2 0 3 390 359 732
1465 2 2 0 3 356 393 796
1466 2 2 0 3 324 425 731
1467 2 2 0 3 321 428 730
1468 2 2 0 3 359 390 797
1469 2 2 0 3 323 426 798
1470 2 2 0 3 393 356 799
1471 2 2 0 3 428 321 729
1472 2 2 0 3 392 357 800
1473 2 2 0 4 533 534 803
1474 2 2 0 4 498 499 870
1475 2 2 0 4 534 535 865
1476 2 2 0 4 536 537 807
1477 2 2 0 4 572 573 859
1478 2 2 0 4 467 468 856
1479 2 2 0 4 537 538 857
1480 2 2 0 4 497 498 802
1481 2 2 0 4 567 568 801
1482 2 2 0 4 570 571 863
1483 2 2 0 4 575 576 850
1484 2 2 0 4 505 506 851
1485 2 2 0 4 540 541 849
1486 2 2 0 4 470 471 848
1487 2 2 0 4 573 574 808
1488 2 2 0 4 503 504 809
1489 2 2 0 4 471 472 813
1490 2 2 0 4 541 542 814
1491 2 2 0 4 538 539 810
1492 2 2 0 4 504 505 853
1493 2 2 0 4 574 575 854
1494 2 2 0 4 469 470 852
1495 2 2 0 4 539 540 811
1496 2 2 0 4 577 578 815
1497 2 2 0 4 476 477 837
1498 2 2 0 4 546 547 822
1499 2 2 0 4 545 546 820
1500 2 2 0 4 511 512 824
1501 2 2 0 4 477 478 836
1502 2 2 0 4 547 548 825
1503 2 2 0 4 512 513 827
1504 2 2 0 4 578 579 817
1505 2 2 0 4 508 509 844
1506 2 2 0 4 473 474 818
1507 2 2 0 4 479 20 833
1508 2 2 0 4 549 23 830
1509 2 2 0 4 584 22 832
1510 2 2 0 4 514 21 831
1511 2 2 0 4 474 475 819
1512 2 2 0 4 582 583 826
1513 2 2 0 4 581 582 823
1514 2 2 0 4 513 514 834
1515 2 2 0 4 510 511 838
1516 2 2 0 4 580 581 821
1517 2 2 0 4 475 476 839
1518 2 2 0 4 478 479 828
1519 2 2 0 4 548 549 829
1520 2 2 0 4 583 584 835
1521 2 2 0 4 496 497 872
1522 2 2 0 4 566 567 871
1523 2 2 0 4 506 507 812
1524 2 2 0 4 576 577 847
1525 2 2 0 4 457 458 806
1526 2 2 0 4 527 528 861
1527 2 2 0 4 542 543 845
1528 2 2 0 4 472 473 846
1529 2 2 0 4 507 508 816
1530 2 2 0 4 509 510 841
1531 2 2 0 4 579 580 842
1532 2 2 0 4 544 545 840
1533 2 2 0 4 543 544 843
1534 2 2 0 4 460 461 869
1535 2 2 0 4 565 566 868
1536 2 2 0 4 562 563 860
1537 2 2 0 4 502 503 858
1538 2 2 0 4 459 460 867
1539 2 2 0 4 529 530 866
1540 2 2 0 4 564 565 864
1541 2 2 0 4 528 529 804
1542 2 2 0 4 493 494 862
1543 2 2 0 4 563 564 805
1544 2 2 0 4 466 467 860
1545 2 2 0 4 501 502 861
1546 2 2 0 4 571 572 806
1547 2 2 0 4 468 469 855
1548 2 2 0 4 445 446 835
1549 2 2 0 4 526 527 858
1550 2 2 0 4 464 465 864
1551 2 2 0 4 446 447 826
1552 2 2 0 4 463 464 868
1553 2 2 0 4 499 500 866
1554 2 2 0 4 569 570 867
1555 2 2 0 4 568 569 869
1556 2 2 0 4 515 516 834
1557 2 2 0 4 560 561 855
1558 2 2 0 4 465 466 805
1559 2 2 0 4 535 536 862
1560 2 2 0 4 500 501 804
1561 2 2 0 4 516 517 827
1562 2 2 0 4 452 453 847
1563 2 2 0 4 522 523 812
1564 2 2 0 4 553 554 839
1565 2 2 0 4 485 486 843
1566 2 2 0 4 521 522 816
1567 2 2 0 4 486 487 845
1568 2 2 0 4 556 557 846
1569 2 2 0 4 24 515 831
1570 2 2 0 4 19 445 832
1571 2 2 0 4 484 485 840
1572 2 2 0 4 480 481 829
1573 2 2 0 4 550 551 828
1574 2 2 0 4 462 463 871
1575 2 2 0 4 532 533 872
1576 2 2 0 4 447 448 823
1577 2 2 0 4 20 480 830
1578 2 2 0 4 23 550 833
1579 2 2 0 4 448 449 821
1580 2 2 0 4 518 519 838
1581 2 2 0 4 481 482 825
1582 2 2 0 4 551 552 836
1583 2 2 0 4 482 483 822
1584 2 2 0 4 552 553 837
1585 2 2 0 4 517 518 824
1586 2 2 0 4 483 484 820
1587 2 2 0 4 555 556 818
1588 2 2 0 4 554 555 819
1589 2 2 0 4 520 521 844
1590 2 2 0 4 450 451 817
1591 2 2 0 4 451 452 815
1592 2 2 0 4 449 450 842
1593 2 2 0 4 519 520 841
1594 2 2 0 4 487 488 814
1595 2 2 0 4 557 558 813
1596 2 2 0 4 488 489 849
1597 2 2 0 4 558 559 848
1598 2 2 0 4 453 454 850
1599 2 2 0 4 523 524 851
1600 2 2 0 4 489 490 811
1601 2 2 0 4 559 560 852
1602 2 2 0 4 454 455 854
1603 2 2 0 4 524 525 853
1604 2 2 0 4 492 493 807
1605 2 2 0 4 490 491 810
1606 2 2 0 4 525 526 809
1607 2 2 0 4 455 456 808
1608 2 2 0 4 491 492 857
1609 2 2 0 4 561 562 856
1610 2 2 0 4 456 457 859
1611 2 2 0 4 458 459 863
1612 2 2 0 4 461 462 801
1613 2 2 0 4 531 532 802
1614 2 2 0 4 494 495 865
1615 2 2 0 4 530 531 870
1616 2 2 0 4 495 496 803
1617 2 2 0 4 462 567 801
1618 2 2 0 4 532 497 802
1619 2 2 0 4 567 462 871
1620 2 2 0 4 497 532 872
1621 2 2 0 4 461 568 869
1622 2 2 0 4 499 530 870
1623 2 2 0 4 566 463 868
1624 2 2 0 4 496 533 803
1625 2 2 0 4 530 499 866
1626 2 2 0 4 460 569 867
1627 2 2 0 4 535 494 865
1628 2 2 0 4 565 464 864
1629 2 2 0 4 571 458 863
1630 2 2 0 4 501 528 804
1631 2 2 0 4 494 535 862
1632 2 2 0 4 466 563 805
1633 2 2 0 4 528 501 861
1634 2 2 0 4 572 457 806
1635 2 2 0 4 563 466 860
1636 2 2 0 4 493 536 807
1637 2 2 0 4 573 456 859
1638 2 2 0 4 527 502 858
1639 2 2 0 4 468 561 856
1640 2 2 0 4 538 491 857
1641 2 2 0 4 456 573 808
1642 2 2 0 4 526 503 809
1643 2 2 0 4 491 538 810
1644 2 2 0 4 561 468 855
1645 2 2 0 4 575 454 854
1646 2 2 0 4 505 524 853
1647 2 2 0 4 470 559 852
1648 2 2 0 4 490 539 811
1649 2 2 0 4 576 453 850
1650 2 2 0 4 506 523 851
1651 2 2 0 4 471 558 848
1652 2 2 0 4 541 488 849
1653 2 2 0 4 507 522 812
1654 2 2 0 4 453 576 847
1655 2 2 0 4 558 471 813
1656 2 2 0 4 488 541 814
1657 2 2 0 4 508 521 816
1658 2 2 0 4 452 577 815
1659 2 2 0 4 557 472 846
1660 2 2 0 4 487 542 845
1661 2 2 0 4 451 578 817
1662 2 2 0 4 509 520 844
1663 2 2 0 4 556 473 818
1664 2 2 0 4 486 543 843
1665 2 2 0 4 555 474 819
1666 2 2 0 4 485 544 840
1667 2 2 0 4 450 579 842
1668 2 2 0 4 520 509 841
1669 2 2 0 4 554 475 839
1670 2 2 0 4 484 545 820
1671 2 2 0 4 519 510 838
1672 2 2 0 4 581 448 821
1673 2 2 0 4 477 552 837
1674 2 2 0 4 483 546 822
1675 2 2 0 4 518 511 824
1676 2 2 0 4 582 447 823
1677 2 2 0 4 478 551 836
1678 2 2 0 4 482 547 825
1679 2 2 0 4 517 512 827
1680 2 2 0 4 583 446 826
1681 2 2 0 4 479 550 828
1682 2 2 0 4 549 480 829
1683 2 2 0 4 514 515 834
1684 2 2 0 4 446 583 835
1685 2 2 0 4 445 584 832
1686 2 2 0 4 21 24 831
1687 2 2 0 4 20 23 833
1688 2 2 0 4 480 549 830
1689 2 2 0 4 515 514 831
1690 2 2 0 4 22 19 832
1691 2 2 0 4 23 20 830
1692 2 2 0 4 550 479 833
1693 2 2 0 4 584 445 835
1694 2 2 0 4 516 513 834
1695 2 2 0 4 551 478 828
1696 2 2 0 4 481 548 829
1697 2 2 0 4 447 582 826
1698 2 2 0 4 513 516 827
1699 2 2 0 4 552 477 836
1700 2 2 0 4 548 481 825
1701 2 2 0 4 448 581 823
1702 2 2 0 4 512 517 824
1703 2 2 0 4 553 476 837
1704 2 2 0 4 547 482 822
1705 2 2 0 4 449 580 821
1706 2 2 0 4 511 518 838
1707 2 2 0 4 476 553 839
1708 2 2 0 4 546 483 820
1709 2 2 0 4 475 554 819
1710 2 2 0 4 545 484 840
1711 2 2 0 4 510 519 841
1712 2 2 0 4 580 449 842
1713 2 2 0 4 474 555 818
1714 2 2 0 4 544 485 843
1715 2 2 0 4 521 508 844
1716 2 2 0 4 579 450 817
1717 2 2 0 4 473 556 846
1718 2 2 0 4 543 486 845
1719 2 2 0 4 578 451 815
1720 2 2 0 4 522 507 816
1721 2 2 0 4 472 557 813
1722 2 2 0 4 542 487 814
1723 2 2 0 4 577 452 847
1724 2 2 0 4 523 506 812
1725 2 2 0 4 559 470 848
1726 2 2 0 4 489 540 849
1727 2 2 0 4 524 505 851
1728 2 2 0 4 454 575 850
1729 2 2 0 4 540 489 811
1730 2 2 0 4 560 469 852
1731 2 2 0 4 455 574 854
1732 2 2 0 4 525 504 853
1733 2 2 0 4 469 560 855
1734 2 2 0 4 539 490 810
1735 2 2 0 4 574 455 808
1736 2 2 0 4 504 525 809
1737 2 2 0 4 492 537 857
1738 2 2 0 4 562 467 856
1739 2 2 0 4 503 526 858
1740 2 2 0 4 457 572 859
1741 2 2 0 4 467 562 860
1742 2 2 0 4 537 492 807
1743 2 2 0 4 458 571 806
1744 2 2 0 4 502 527 861
1745 2 2 0 4 564 465 805
1746 2 2 0 4 536 493 862
1747 2 2 0 4 529 500 804
1748 2 2 0 4 459 570 863
1749 2 2 0 4 465 564 864
1750 2 2 0 4 495 534 865
1751 2 2 0 4 570 459 867
1752 2 2 0 4 500 529 866
1753 2 2 0 4 464 565 868
1754 2 2 0 4 534 495 803
1755 2 2 0 4 531 498 870
1756 2 2 0 4 569 460 869
1757 2 2 0 4 463 566 871
1758 2 2 0 4 533 496 872
1759 2 2 0 4 498 531 802
1760 2 2 0 4 568 461 801
$EndElements
