lc = 2.5e-3;
w = 2e-3;
l = 0.3;
Point(1) = {-w/2, 0, -l/2, lc};
Point(2) = {-w/2, 0, 0, lc};
Point(3) = {-w/2, 0, l/2, lc};
Point(4) = {w/2, 0, -l/2, lc};
Point(5) = {w/2, 0, 0, lc};
Point(6) = {w/2, 0, l/2, lc};
Line(1) = {1, 2};
Line(2) = {2, 3};
Line(3) = {3, 6};
Line(4) = {6, 5};
Line(5) = {5, 4};
Line(6) = {4, 1};
Line Loop(7) = {1, 2, 3, 4, 5, 6};
Plane Surface(8) = {7};