$MeshFormat
2.2 0 8
$EndMeshFormat
$Nodes
362
1 -0.001 0 -0.15
2 -0.001 0 0
3 -0.001 0 0.15
4 0.001 0 -0.15
5 0.001 0 0
6 0.001 0 0.15
7 -0.001 0 -0.1474999999943983
8 -0.001 0 -0.1449999999874413
9 -0.001 0 -0.1424999999831949
10 -0.001 0 -0.1399999999762379
11 -0.001 0 -0.1374999999665704
12 -0.001 0 -0.1349999999596135
13 -0.001 0 -0.1324999999516627
14 -0.001 0 -0.1299999999429891
15 -0.001 0 -0.1274999999360321
16 -0.001 0 -0.1249999999263646
17 -0.001 0 -0.1224999999194077
18 -0.001 0 -0.1199999999124507
19 -0.001 0 -0.1174999999054938
20 -0.001 0 -0.1149999998985368
21 -0.001 0 -0.1124999998915798
22 -0.001 0 -0.1099999998846229
23 -0.001 0 -0.1074999998776659
24 -0.001 0 -0.104999999870709
25 -0.001 0 -0.102499999863752
26 -0.001 0 -0.09999999985679506
27 -0.001 0 -0.09749999984983809
28 -0.001 0 -0.09499999984288113
29 -0.001 0 -0.09249999983321368
30 -0.001 0 -0.08999999982625671
31 -0.001 0 -0.08749999981929976
32 -0.001 0 -0.0849999998123428
33 -0.001 0 -0.08249999980538585
34 -0.001 0 -0.07999999979842888
35 -0.001 0 -0.07749999979147192
36 -0.001 0 -0.07499999978587021
37 -0.001 0 -0.07249999979047807
38 -0.001 0 -0.06999999979508593
39 -0.001 0 -0.06749999980240431
40 -0.001 0 -0.0649999998070122
41 -0.001 0 -0.06249999981433056
42 -0.001 0 -0.05999999981893843
43 -0.001 0 -0.05749999982472087
44 -0.001 0 -0.05499999983086469
45 -0.001 0 -0.05249999983547257
46 -0.001 0 -0.04999999984279095
47 -0.001 0 -0.04749999984739882
48 -0.001 0 -0.0449999998547172
49 -0.001 0 -0.04249999985932508
50 -0.001 0 -0.03999999986492681
51 -0.001 0 -0.03749999987125133
52 -0.001 0 -0.03499999987757585
53 -0.001 0 -0.03249999988317759
54 -0.001 0 -0.02999999988778546
55 -0.001 0 -0.02749999989510385
56 -0.001 0 -0.02499999989925997
57 -0.001 0 -0.02249999990567478
58 -0.001 0 -0.01999999991805274
59 -0.001 0 -0.01749999992744908
60 -0.001 0 -0.01499999993684548
61 -0.001 0 -0.01249999994895237
62 -0.001 0 -0.009999999957174127
63 -0.001 0 -0.007499999969913518
64 -0.001 0 -0.004999999978496705
65 -0.001 0 -0.00249999999060363
66 -0.001 0 0.002500000005668307
67 -0.001 0 0.005000000011159394
68 -0.001 0 0.007500000016571425
69 -0.001 0 0.01000000002229968
70 -0.001 0 0.01250000002923637
71 -0.001 0 0.01500000003694104
72 -0.001 0 0.0175000000441036
73 -0.001 0 0.0200000000511984
74 -0.001 0 0.02250000005829321
75 -0.001 0 0.02500000006538801
76 -0.001 0 0.02750000007279903
77 -0.001 0 0.03000000008093286
78 -0.001 0 0.03250000008802766
79 -0.001 0 0.03500000009512246
80 -0.001 0 0.03750000010221726
81 -0.001 0 0.04000000010931206
82 -0.001 0 0.04250000011640686
83 -0.001 0 0.04500000012350167
84 -0.001 0 0.04750000013059646
85 -0.001 0 0.05000000013769126
86 -0.001 0 0.05250000014478606
87 -0.001 0 0.05500000015188086
88 -0.001 0 0.05750000016168617
89 -0.001 0 0.06000000016878097
90 -0.001 0 0.06250000017587576
91 -0.001 0 0.06500000018297057
92 -0.001 0 0.06750000019006536
93 -0.001 0 0.07000000019716017
94 -0.001 0 0.07250000020425497
95 -0.001 0 0.07500000020999451
96 -0.001 0 0.0775000002055245
97 -0.001 0 0.08000000020105448
98 -0.001 0 0.08250000019387395
99 -0.001 0 0.08500000018940392
100 -0.001 0 0.08750000018222338
101 -0.001 0 0.09000000017775335
102 -0.001 0 0.09250000017210874
103 -0.001 0 0.09500000016610277
104 -0.001 0 0.09750000016163274
105 -0.001 0 0.1000000001544522
106 -0.001 0 0.1025000001499822
107 -0.001 0 0.1050000001428016
108 -0.001 0 0.1075000001383316
109 -0.001 0 0.1100000001328677
110 -0.001 0 0.112500000126681
111 -0.001 0 0.1150000001204943
112 -0.001 0 0.1175000001150305
113 -0.001 0 0.1200000001105604
114 -0.001 0 0.1225000001033799
115 -0.001 0 0.1250000000993616
116 -0.001 0 0.1275000000930847
117 -0.001 0 0.1300000000808445
118 -0.001 0 0.132500000071586
119 -0.001 0 0.1350000000623275
120 -0.001 0 0.1375000000503584
121 -0.001 0 0.1400000000422745
122 -0.001 0 0.1425000000296729
123 -0.001 0 0.1450000000212276
124 -0.001 0 0.1475000000092585
125 0.001 0 0.1474999999943983
126 0.001 0 0.1449999999874413
127 0.001 0 0.1424999999831949
128 0.001 0 0.1399999999762379
129 0.001 0 0.1374999999665704
130 0.001 0 0.1349999999596135
131 0.001 0 0.1324999999516627
132 0.001 0 0.1299999999429891
133 0.001 0 0.1274999999360321
134 0.001 0 0.1249999999263646
135 0.001 0 0.1224999999194077
136 0.001 0 0.1199999999124507
137 0.001 0 0.1174999999054938
138 0.001 0 0.1149999998985368
139 0.001 0 0.1124999998915798
140 0.001 0 0.1099999998846229
141 0.001 0 0.1074999998776659
142 0.001 0 0.104999999870709
143 0.001 0 0.102499999863752
144 0.001 0 0.09999999985679506
145 0.001 0 0.09749999984983809
146 0.001 0 0.09499999984288113
147 0.001 0 0.09249999983321368
148 0.001 0 0.08999999982625671
149 0.001 0 0.08749999981929976
150 0.001 0 0.0849999998123428
151 0.001 0 0.08249999980538585
152 0.001 0 0.07999999979842888
153 0.001 0 0.07749999979147192
154 0.001 0 0.07499999978587021
155 0.001 0 0.07249999979047807
156 0.001 0 0.06999999979508593
157 0.001 0 0.06749999980240431
158 0.001 0 0.0649999998070122
159 0.001 0 0.06249999981433056
160 0.001 0 0.05999999981893843
161 0.001 0 0.05749999982472087
162 0.001 0 0.05499999983086469
163 0.001 0 0.05249999983547257
164 0.001 0 0.04999999984279095
165 0.001 0 0.04749999984739882
166 0.001 0 0.0449999998547172
167 0.001 0 0.04249999985932508
168 0.001 0 0.03999999986492681
169 0.001 0 0.03749999987125133
170 0.001 0 0.03499999987757585
171 0.001 0 0.03249999988317759
172 0.001 0 0.02999999988778546
173 0.001 0 0.02749999989510385
174 0.001 0 0.02499999989925997
175 0.001 0 0.02249999990567478
176 0.001 0 0.01999999991805274
177 0.001 0 0.01749999992744908
178 0.001 0 0.01499999993684548
179 0.001 0 0.01249999994895237
180 0.001 0 0.009999999957174127
181 0.001 0 0.007499999969913518
182 0.001 0 0.004999999978496705
183 0.001 0 0.00249999999060363
184 0.001 0 -0.002500000005668307
185 0.001 0 -0.005000000011159394
186 0.001 0 -0.007500000016571425
187 0.001 0 -0.01000000002229968
188 0.001 0 -0.01250000002923637
189 0.001 0 -0.01500000003694104
190 0.001 0 -0.0175000000441036
191 0.001 0 -0.0200000000511984
192 0.001 0 -0.02250000005829321
193 0.001 0 -0.02500000006538801
194 0.001 0 -0.02750000007279903
195 0.001 0 -0.03000000008093286
196 0.001 0 -0.03250000008802766
197 0.001 0 -0.03500000009512246
198 0.001 0 -0.03750000010221726
199 0.001 0 -0.04000000010931206
200 0.001 0 -0.04250000011640686
201 0.001 0 -0.04500000012350167
202 0.001 0 -0.04750000013059646
203 0.001 0 -0.05000000013769126
204 0.001 0 -0.05250000014478606
205 0.001 0 -0.05500000015188086
206 0.001 0 -0.05750000016168617
207 0.001 0 -0.06000000016878097
208 0.001 0 -0.06250000017587576
209 0.001 0 -0.06500000018297057
210 0.001 0 -0.06750000019006536
211 0.001 0 -0.07000000019716017
212 0.001 0 -0.07250000020425497
213 0.001 0 -0.07500000020999451
214 0.001 0 -0.0775000002055245
215 0.001 0 -0.08000000020105448
216 0.001 0 -0.08250000019387395
217 0.001 0 -0.08500000018940392
218 0.001 0 -0.08750000018222338
219 0.001 0 -0.09000000017775335
220 0.001 0 -0.09250000017210874
221 0.001 0 -0.09500000016610277
222 0.001 0 -0.09750000016163274
223 0.001 0 -0.1000000001544522
224 0.001 0 -0.1025000001499822
225 0.001 0 -0.1050000001428016
226 0.001 0 -0.1075000001383316
227 0.001 0 -0.1100000001328677
228 0.001 0 -0.112500000126681
229 0.001 0 -0.1150000001204943
230 0.001 0 -0.1175000001150305
231 0.001 0 -0.1200000001105604
232 0.001 0 -0.1225000001033799
233 0.001 0 -0.1250000000993616
234 0.001 0 -0.1275000000930847
235 0.001 0 -0.1300000000808445
236 0.001 0 -0.132500000071586
237 0.001 0 -0.1350000000623275
238 0.001 0 -0.1375000000503584
239 0.001 0 -0.1400000000422745
240 0.001 0 -0.1425000000296729
241 0.001 0 -0.1450000000212276
242 0.001 0 -0.1475000000092585
243 0 0 0.1237500000121284
244 -1.084202172485505e-19 0 0.02124999998330478
245 -5.421010862427522e-20 0 0.1387500000088603
246 5.421010862427523e-20 0 -0.008749999991489689
247 -5.421010862427522e-20 0 0.1437500000053842
248 0 0 -0.1437500000053842
249 -1.084202172485504e-19 0 -0.1462500000030814
250 0 0 0.1462500000030814
251 1.084202172485504e-19 0 -0.001249999999067984
252 0 0 0.1487499999971991
253 0 0 -0.1487500000009142
254 -5.421010862427522e-20 0 0.001249999999067984
255 -5.421010862427522e-20 0 -0.003749999996482009
256 -1.084202172485504e-19 0 0.003749999996482009
257 -1.297460996861096e-11 0 -0.006249999981431843
258 -5.421010862427522e-20 0 0.00624999999403526
259 -1.846210176022969e-11 0 0.1412500000257225
260 1.846210169730983e-11 0 -0.1412500000257225
261 -5.421010862427522e-20 0 0.008749999991489689
262 0 0 -0.01124999998941564
263 1.162956199000215e-11 0 0.01124999997902924
264 1.179241084179044e-11 0 -0.1387500000195622
265 0 0 0.01374999998799381
266 -1.433642790477914e-11 0 -0.01374999997510956
267 -1.496193482473888e-11 0 0.1362500000230388
268 1.496193552237121e-11 0 -0.1362500000230388
269 -5.421010862427522e-20 0 -0.0162499999863348
270 1.787420578717175e-11 0 0.01624999997085265
271 -5.421010862427522e-20 0 -0.1337500000112974
272 -5.421010862427522e-20 0 0.1337500000112974
273 0 0 0.01874999998520096
274 0 0 -0.01874999998520096
275 0 0 -0.1312500000117706
276 0 0 0.1312500000117706
277 -2.377600878089617e-11 0 -0.02124999996289306
278 -5.421010862427522e-20 0 0.1287500000132376
279 0 0 -0.1287500000132376
280 1.084202172485504e-19 0 -0.02374999998215399
281 -5.421010862427522e-20 0 0.02374999998215399
282 -1.084202172485504e-19 0 0.1262500000137107
283 -5.421010862427522e-20 0 -0.1262500000137107
284 -5.421010862427522e-20 0 -0.02624999998313771
285 0 0 0.02624999998313771
286 5.421010862427523e-20 0 -0.1237500000121285
287 0 0 0.0287499999841553
288 0 0 -0.0287499999841553
289 -5.421010862427522e-20 0 -0.1212500000114497
290 0 0 0.1212500000114497
291 -5.421010862427522e-20 0 0.03124999998498089
292 0 0 -0.03124999998498089
293 0 0 -0.1187500000108838
294 -5.421010862427522e-20 0 0.1187500000108838
295 0 0 0.03374999998597589
296 -5.421010862427522e-20 0 -0.03374999998597589
297 0 0 0.1162500000098888
298 -1.084202172485504e-19 0 -0.1162500000098888
299 0 0 -0.03624999998654173
300 0 0 0.03624999998654173
301 0 0 -0.113750000009323
302 -1.084202172485504e-19 0 0.113750000009323
303 -5.421010862427522e-20 0 0.03874999998692686
304 0 0 -0.03874999998692687
305 5.421010862427522e-20 0 -0.1112500000089379
306 -5.421010862427522e-20 0 0.1112500000089379
307 -5.421010862427522e-20 0 0.0412499999874927
308 0 0 -0.0412499999874927
309 -1.084202172485504e-19 0 0.108750000008372
310 -5.421010862427522e-20 0 -0.108750000008372
311 0 0 -0.0437499999884877
312 -5.421010862427522e-20 0 0.04374999998848771
313 0 0 0.106250000007377
314 0 0 -0.106250000007377
315 0 0 -0.04624999998905353
316 0 0 0.04624999998905353
317 0 0 -0.1037500000068112
318 0 0 0.1037500000068112
319 -5.421010862427522e-20 0 0.04874999998961937
320 -5.421010862427522e-20 0 -0.04874999998961937
321 0 0 -0.1012500000062454
322 0 0 0.1012500000062454
323 0 0 -0.05124999999018522
324 -5.421010862427522e-20 0 0.05124999999018521
325 -1.084202172485504e-19 0 -0.09875000000567952
326 0 0 0.09875000000567953
327 0 0 -0.05374999999075104
328 -1.084202172485504e-19 0 0.05374999999075104
329 -5.421010862427522e-20 0 -0.09625000000511368
330 -5.421010862427522e-20 0 0.09625000000511368
331 -5.421010862427522e-20 0 -0.05624999999228814
332 -5.421010862427522e-20 0 0.05624999999228815
333 -5.421010862427522e-20 0 -0.09375000000357657
334 -1.084202172485504e-19 0 0.09375000000357657
335 -5.421010862427522e-20 0 0.05874999999353161
336 -5.421010862427522e-20 0 -0.05874999999353161
337 -5.421010862427522e-20 0 0.09125000000233312
338 -5.421010862427522e-20 0 -0.09125000000233312
339 -5.421010862427522e-20 0 -0.06124999999448143
340 -5.421010862427522e-20 0 0.06124999999448143
341 -5.421010862427522e-20 0 -0.08875000000138329
342 0 0 0.08875000000138331
343 0 0 -0.06374999999504727
344 0 0 0.06374999999504728
345 -5.421010862427522e-20 0 0.08625000000081746
346 -5.421010862427522e-20 0 -0.08625000000081745
347 0 0 -0.06624999999561311
348 -1.084202172485504e-19 0 0.0662499999956131
349 0 0 0.08375000000025164
350 0 0 -0.08375000000025162
351 0 0 -0.06874999999617895
352 0 0 0.06874999999617895
353 0 0 -0.08124999999968578
354 0 0 0.08124999999968578
355 -5.421010862427522e-20 0 0.07124999999674478
356 0 0 -0.07124999999674478
357 -5.421010862427522e-20 0 -0.07874999999911994
358 -5.421010862427522e-20 0 0.07874999999911994
359 -5.421010862427522e-20 0 0.07374999999764943
360 -5.421010862427522e-20 0 -0.07374999999764945
361 0 0 0.07624999999821527
362 0 0 -0.07624999999821527
$EndNodes
$Elements
728
1 15 2 0 1 1
2 15 2 0 2 2
3 15 2 0 3 3
4 15 2 0 4 4
5 15 2 0 5 5
6 15 2 0 6 6
7 1 2 0 1 1 7
8 1 2 0 1 7 8
9 1 2 0 1 8 9
10 1 2 0 1 9 10
11 1 2 0 1 10 11
12 1 2 0 1 11 12
13 1 2 0 1 12 13
14 1 2 0 1 13 14
15 1 2 0 1 14 15
16 1 2 0 1 15 16
17 1 2 0 1 16 17
18 1 2 0 1 17 18
19 1 2 0 1 18 19
20 1 2 0 1 19 20
21 1 2 0 1 20 21
22 1 2 0 1 21 22
23 1 2 0 1 22 23
24 1 2 0 1 23 24
25 1 2 0 1 24 25
26 1 2 0 1 25 26
27 1 2 0 1 26 27
28 1 2 0 1 27 28
29 1 2 0 1 28 29
30 1 2 0 1 29 30
31 1 2 0 1 30 31
32 1 2 0 1 31 32
33 1 2 0 1 32 33
34 1 2 0 1 33 34
35 1 2 0 1 34 35
36 1 2 0 1 35 36
37 1 2 0 1 36 37
38 1 2 0 1 37 38
39 1 2 0 1 38 39
40 1 2 0 1 39 40
41 1 2 0 1 40 41
42 1 2 0 1 41 42
43 1 2 0 1 42 43
44 1 2 0 1 43 44
45 1 2 0 1 44 45
46 1 2 0 1 45 46
47 1 2 0 1 46 47
48 1 2 0 1 47 48
49 1 2 0 1 48 49
50 1 2 0 1 49 50
51 1 2 0 1 50 51
52 1 2 0 1 51 52
53 1 2 0 1 52 53
54 1 2 0 1 53 54
55 1 2 0 1 54 55
56 1 2 0 1 55 56
57 1 2 0 1 56 57
58 1 2 0 1 57 58
59 1 2 0 1 58 59
60 1 2 0 1 59 60
61 1 2 0 1 60 61
62 1 2 0 1 61 62
63 1 2 0 1 62 63
64 1 2 0 1 63 64
65 1 2 0 1 64 65
66 1 2 0 1 65 2
67 1 2 0 2 2 66
68 1 2 0 2 66 67
69 1 2 0 2 67 68
70 1 2 0 2 68 69
71 1 2 0 2 69 70
72 1 2 0 2 70 71
73 1 2 0 2 71 72
74 1 2 0 2 72 73
75 1 2 0 2 73 74
76 1 2 0 2 74 75
77 1 2 0 2 75 76
78 1 2 0 2 76 77
79 1 2 0 2 77 78
80 1 2 0 2 78 79
81 1 2 0 2 79 80
82 1 2 0 2 80 81
83 1 2 0 2 81 82
84 1 2 0 2 82 83
85 1 2 0 2 83 84
86 1 2 0 2 84 85
87 1 2 0 2 85 86
88 1 2 0 2 86 87
89 1 2 0 2 87 88
90 1 2 0 2 88 89
91 1 2 0 2 89 90
92 1 2 0 2 90 91
93 1 2 0 2 91 92
94 1 2 0 2 92 93
95 1 2 0 2 93 94
96 1 2 0 2 94 95
97 1 2 0 2 95 96
98 1 2 0 2 96 97
99 1 2 0 2 97 98
100 1 2 0 2 98 99
101 1 2 0 2 99 100
102 1 2 0 2 100 101
103 1 2 0 2 101 102
104 1 2 0 2 102 103
105 1 2 0 2 103 104
106 1 2 0 2 104 105
107 1 2 0 2 105 106
108 1 2 0 2 106 107
109 1 2 0 2 107 108
110 1 2 0 2 108 109
111 1 2 0 2 109 110
112 1 2 0 2 110 111
113 1 2 0 2 111 112
114 1 2 0 2 112 113
115 1 2 0 2 113 114
116 1 2 0 2 114 115
117 1 2 0 2 115 116
118 1 2 0 2 116 117
119 1 2 0 2 117 118
120 1 2 0 2 118 119
121 1 2 0 2 119 120
122 1 2 0 2 120 121
123 1 2 0 2 121 122
124 1 2 0 2 122 123
125 1 2 0 2 123 124
126 1 2 0 2 124 3
127 1 2 0 3 3 6
128 1 2 0 4 6 125
129 1 2 0 4 125 126
130 1 2 0 4 126 127
131 1 2 0 4 127 128
132 1 2 0 4 128 129
133 1 2 0 4 129 130
134 1 2 0 4 130 131
135 1 2 0 4 131 132
136 1 2 0 4 132 133
137 1 2 0 4 133 134
138 1 2 0 4 134 135
139 1 2 0 4 135 136
140 1 2 0 4 136 137
141 1 2 0 4 137 138
142 1 2 0 4 138 139
143 1 2 0 4 139 140
144 1 2 0 4 140 141
145 1 2 0 4 141 142
146 1 2 0 4 142 143
147 1 2 0 4 143 144
148 1 2 0 4 144 145
149 1 2 0 4 145 146
150 1 2 0 4 146 147
151 1 2 0 4 147 148
152 1 2 0 4 148 149
153 1 2 0 4 149 150
154 1 2 0 4 150 151
155 1 2 0 4 151 152
156 1 2 0 4 152 153
157 1 2 0 4 153 154
158 1 2 0 4 154 155
159 1 2 0 4 155 156
160 1 2 0 4 156 157
161 1 2 0 4 157 158
162 1 2 0 4 158 159
163 1 2 0 4 159 160
164 1 2 0 4 160 161
165 1 2 0 4 161 162
166 1 2 0 4 162 163
167 1 2 0 4 163 164
168 1 2 0 4 164 165
169 1 2 0 4 165 166
170 1 2 0 4 166 167
171 1 2 0 4 167 168
172 1 2 0 4 168 169
173 1 2 0 4 169 170
174 1 2 0 4 170 171
175 1 2 0 4 171 172
176 1 2 0 4 172 173
177 1 2 0 4 173 174
178 1 2 0 4 174 175
179 1 2 0 4 175 176
180 1 2 0 4 176 177
181 1 2 0 4 177 178
182 1 2 0 4 178 179
183 1 2 0 4 179 180
184 1 2 0 4 180 181
185 1 2 0 4 181 182
186 1 2 0 4 182 183
187 1 2 0 4 183 5
188 1 2 0 5 5 184
189 1 2 0 5 184 185
190 1 2 0 5 185 186
191 1 2 0 5 186 187
192 1 2 0 5 187 188
193 1 2 0 5 188 189
194 1 2 0 5 189 190
195 1 2 0 5 190 191
196 1 2 0 5 191 192
197 1 2 0 5 192 193
198 1 2 0 5 193 194
199 1 2 0 5 194 195
200 1 2 0 5 195 196
201 1 2 0 5 196 197
202 1 2 0 5 197 198
203 1 2 0 5 198 199
204 1 2 0 5 199 200
205 1 2 0 5 200 201
206 1 2 0 5 201 202
207 1 2 0 5 202 203
208 1 2 0 5 203 204
209 1 2 0 5 204 205
210 1 2 0 5 205 206
211 1 2 0 5 206 207
212 1 2 0 5 207 208
213 1 2 0 5 208 209
214 1 2 0 5 209 210
215 1 2 0 5 210 211
216 1 2 0 5 211 212
217 1 2 0 5 212 213
218 1 2 0 5 213 214
219 1 2 0 5 214 215
220 1 2 0 5 215 216
221 1 2 0 5 216 217
222 1 2 0 5 217 218
223 1 2 0 5 218 219
224 1 2 0 5 219 220
225 1 2 0 5 220 221
226 1 2 0 5 221 222
227 1 2 0 5 222 223
228 1 2 0 5 223 224
229 1 2 0 5 224 225
230 1 2 0 5 225 226
231 1 2 0 5 226 227
232 1 2 0 5 227 228
233 1 2 0 5 228 229
234 1 2 0 5 229 230
235 1 2 0 5 230 231
236 1 2 0 5 231 232
237 1 2 0 5 232 233
238 1 2 0 5 233 234
239 1 2 0 5 234 235
240 1 2 0 5 235 236
241 1 2 0 5 236 237
242 1 2 0 5 237 238
243 1 2 0 5 238 239
244 1 2 0 5 239 240
245 1 2 0 5 240 241
246 1 2 0 5 241 242
247 1 2 0 5 242 4
248 1 2 0 6 4 1
249 2 2 0 8 212 213 360
250 2 2 0 8 94 95 359
251 2 2 0 8 93 94 355
252 2 2 0 8 211 212 356
253 2 2 0 8 34 35 357
254 2 2 0 8 152 153 358
255 2 2 0 8 33 34 353
256 2 2 0 8 151 152 354
257 2 2 0 8 210 211 351
258 2 2 0 8 92 93 352
259 2 2 0 8 32 33 350
260 2 2 0 8 209 210 347
261 2 2 0 8 91 92 348
262 2 2 0 8 31 32 346
263 2 2 0 8 95 96 361
264 2 2 0 8 213 214 362
265 2 2 0 8 30 31 341
266 2 2 0 8 29 30 338
267 2 2 0 8 88 89 335
268 2 2 0 8 206 207 336
269 2 2 0 8 28 29 333
270 2 2 0 8 87 88 332
271 2 2 0 8 98 99 349
272 2 2 0 8 145 146 330
273 2 2 0 8 27 28 329
274 2 2 0 8 86 87 328
275 2 2 0 8 204 205 327
276 2 2 0 8 99 100 345
277 2 2 0 8 26 27 325
278 2 2 0 8 144 145 326
279 2 2 0 8 100 101 342
280 2 2 0 8 40 41 343
281 2 2 0 8 158 159 344
282 2 2 0 8 85 86 324
283 2 2 0 8 203 204 323
284 2 2 0 8 159 160 340
285 2 2 0 8 41 42 339
286 2 2 0 8 25 26 321
287 2 2 0 8 143 144 322
288 2 2 0 8 202 203 320
289 2 2 0 8 84 85 319
290 2 2 0 8 101 102 337
291 2 2 0 8 142 143 318
292 2 2 0 8 24 25 317
293 2 2 0 8 201 202 315
294 2 2 0 8 102 103 334
295 2 2 0 8 43 44 331
296 2 2 0 8 23 24 314
297 2 2 0 8 141 142 313
298 2 2 0 8 82 83 312
299 2 2 0 8 200 201 311
300 2 2 0 8 22 23 310
301 2 2 0 8 140 141 309
302 2 2 0 8 81 82 307
303 2 2 0 8 199 200 308
304 2 2 0 8 139 140 306
305 2 2 0 8 80 81 303
306 2 2 0 8 198 199 304
307 2 2 0 8 138 139 302
308 2 2 0 8 79 80 300
309 2 2 0 8 197 198 299
310 2 2 0 8 196 197 296
311 2 2 0 8 78 79 295
312 2 2 0 8 165 166 316
313 2 2 0 8 18 19 293
314 2 2 0 8 136 137 294
315 2 2 0 8 77 78 291
316 2 2 0 8 17 18 289
317 2 2 0 8 76 77 287
318 2 2 0 8 194 195 288
319 2 2 0 8 227 228 305
320 2 2 0 8 16 17 286
321 2 2 0 8 133 134 282
322 2 2 0 8 228 229 301
323 2 2 0 8 74 75 281
324 2 2 0 8 192 193 280
325 2 2 0 8 111 112 297
326 2 2 0 8 229 230 298
327 2 2 0 8 14 15 279
328 2 2 0 8 53 54 292
329 2 2 0 8 131 132 276
330 2 2 0 8 13 14 275
331 2 2 0 8 114 115 243
332 2 2 0 8 113 114 290
333 2 2 0 8 190 191 274
334 2 2 0 8 72 73 273
335 2 2 0 8 173 174 285
336 2 2 0 8 55 56 284
337 2 2 0 8 130 131 272
338 2 2 0 8 12 13 271
339 2 2 0 8 189 190 269
340 2 2 0 8 233 234 283
341 2 2 0 8 70 71 265
342 2 2 0 8 128 129 245
343 2 2 0 8 187 188 262
344 2 2 0 8 116 117 278
345 2 2 0 8 175 176 244
346 2 2 0 8 57 58 277
347 2 2 0 8 68 69 261
348 2 2 0 8 186 187 246
349 2 2 0 8 177 178 270
350 2 2 0 8 67 68 258
351 2 2 0 8 7 8 249
352 2 2 0 8 125 126 250
353 2 2 0 8 66 67 256
354 2 2 0 8 237 238 268
355 2 2 0 8 119 120 267
356 2 2 0 8 238 239 264
357 2 2 0 8 60 61 266
358 2 2 0 8 179 180 263
359 2 2 0 8 2 66 254
360 2 2 0 8 5 184 251
361 2 2 0 8 1 7 253
362 2 2 0 8 6 125 252
363 2 2 0 8 184 185 255
364 2 2 0 8 122 123 247
365 2 2 0 8 240 241 248
366 2 2 0 8 63 64 257
367 2 2 0 8 121 122 259
368 2 2 0 8 239 240 260
369 2 2 0 8 185 186 257
370 2 2 0 8 8 9 248
371 2 2 0 8 126 127 247
372 2 2 0 8 127 128 259
373 2 2 0 8 9 10 260
374 2 2 0 8 64 65 255
375 2 2 0 8 10 11 264
376 2 2 0 8 124 3 252
377 2 2 0 8 69 70 263
378 2 2 0 8 242 4 253
379 2 2 0 8 183 5 254
380 2 2 0 8 65 2 251
381 2 2 0 8 188 189 266
382 2 2 0 8 129 130 267
383 2 2 0 8 11 12 268
384 2 2 0 8 71 72 270
385 2 2 0 8 182 183 256
386 2 2 0 8 123 124 250
387 2 2 0 8 241 242 249
388 2 2 0 8 181 182 258
389 2 2 0 8 73 74 244
390 2 2 0 8 191 192 277
391 2 2 0 8 61 62 262
392 2 2 0 8 180 181 261
393 2 2 0 8 62 63 246
394 2 2 0 8 120 121 245
395 2 2 0 8 132 133 278
396 2 2 0 8 15 16 283
397 2 2 0 8 193 194 284
398 2 2 0 8 75 76 285
399 2 2 0 8 178 179 265
400 2 2 0 8 134 135 243
401 2 2 0 8 59 60 269
402 2 2 0 8 236 237 271
403 2 2 0 8 118 119 272
404 2 2 0 8 135 136 290
405 2 2 0 8 176 177 273
406 2 2 0 8 58 59 274
407 2 2 0 8 195 196 292
408 2 2 0 8 235 236 275
409 2 2 0 8 117 118 276
410 2 2 0 8 19 20 298
411 2 2 0 8 137 138 297
412 2 2 0 8 56 57 280
413 2 2 0 8 174 175 281
414 2 2 0 8 115 116 282
415 2 2 0 8 20 21 301
416 2 2 0 8 232 233 286
417 2 2 0 8 234 235 279
418 2 2 0 8 21 22 305
419 2 2 0 8 54 55 288
420 2 2 0 8 172 173 287
421 2 2 0 8 171 172 291
422 2 2 0 8 231 232 289
423 2 2 0 8 112 113 294
424 2 2 0 8 230 231 293
425 2 2 0 8 170 171 295
426 2 2 0 8 52 53 296
427 2 2 0 8 83 84 316
428 2 2 0 8 51 52 299
429 2 2 0 8 169 170 300
430 2 2 0 8 110 111 302
431 2 2 0 8 50 51 304
432 2 2 0 8 168 169 303
433 2 2 0 8 109 110 306
434 2 2 0 8 49 50 308
435 2 2 0 8 167 168 307
436 2 2 0 8 108 109 309
437 2 2 0 8 226 227 310
438 2 2 0 8 48 49 311
439 2 2 0 8 166 167 312
440 2 2 0 8 205 206 331
441 2 2 0 8 107 108 313
442 2 2 0 8 225 226 314
443 2 2 0 8 146 147 334
444 2 2 0 8 47 48 315
445 2 2 0 8 164 165 319
446 2 2 0 8 46 47 320
447 2 2 0 8 224 225 317
448 2 2 0 8 106 107 318
449 2 2 0 8 105 106 322
450 2 2 0 8 223 224 321
451 2 2 0 8 147 148 337
452 2 2 0 8 207 208 339
453 2 2 0 8 89 90 340
454 2 2 0 8 148 149 342
455 2 2 0 8 45 46 323
456 2 2 0 8 163 164 324
457 2 2 0 8 90 91 344
458 2 2 0 8 208 209 343
459 2 2 0 8 104 105 326
460 2 2 0 8 222 223 325
461 2 2 0 8 162 163 328
462 2 2 0 8 44 45 327
463 2 2 0 8 149 150 345
464 2 2 0 8 221 222 329
465 2 2 0 8 103 104 330
466 2 2 0 8 150 151 349
467 2 2 0 8 161 162 332
468 2 2 0 8 220 221 333
469 2 2 0 8 42 43 336
470 2 2 0 8 160 161 335
471 2 2 0 8 219 220 338
472 2 2 0 8 218 219 341
473 2 2 0 8 35 36 362
474 2 2 0 8 153 154 361
475 2 2 0 8 217 218 346
476 2 2 0 8 157 158 348
477 2 2 0 8 39 40 347
478 2 2 0 8 216 217 350
479 2 2 0 8 156 157 352
480 2 2 0 8 38 39 351
481 2 2 0 8 97 98 354
482 2 2 0 8 215 216 353
483 2 2 0 8 96 97 358
484 2 2 0 8 214 215 357
485 2 2 0 8 37 38 356
486 2 2 0 8 155 156 355
487 2 2 0 8 154 155 359
488 2 2 0 8 36 37 360
489 2 2 0 8 36 213 362
490 2 2 0 8 154 95 361
491 2 2 0 8 37 212 360
492 2 2 0 8 155 94 359
493 2 2 0 8 215 34 357
494 2 2 0 8 97 152 358
495 2 2 0 8 38 211 356
496 2 2 0 8 156 93 355
497 2 2 0 8 216 33 353
498 2 2 0 8 98 151 354
499 2 2 0 8 39 210 351
500 2 2 0 8 157 92 352
501 2 2 0 8 217 32 350
502 2 2 0 8 151 98 349
503 2 2 0 8 40 209 347
504 2 2 0 8 158 91 348
505 2 2 0 8 150 99 345
506 2 2 0 8 218 31 346
507 2 2 0 8 209 40 343
508 2 2 0 8 91 158 344
509 2 2 0 8 149 100 342
510 2 2 0 8 219 30 341
511 2 2 0 8 208 41 339
512 2 2 0 8 90 159 340
513 2 2 0 8 220 29 338
514 2 2 0 8 148 101 337
515 2 2 0 8 43 206 336
516 2 2 0 8 161 88 335
517 2 2 0 8 221 28 333
518 2 2 0 8 147 102 334
519 2 2 0 8 162 87 332
520 2 2 0 8 206 43 331
521 2 2 0 8 222 27 329
522 2 2 0 8 104 145 330
523 2 2 0 8 45 204 327
524 2 2 0 8 163 86 328
525 2 2 0 8 223 26 325
526 2 2 0 8 105 144 326
527 2 2 0 8 46 203 323
528 2 2 0 8 164 85 324
529 2 2 0 8 224 25 321
530 2 2 0 8 106 143 322
531 2 2 0 8 165 84 319
532 2 2 0 8 47 202 320
533 2 2 0 8 225 24 317
534 2 2 0 8 107 142 318
535 2 2 0 8 48 201 315
536 2 2 0 8 84 165 316
537 2 2 0 8 108 141 313
538 2 2 0 8 226 23 314
539 2 2 0 8 49 200 311
540 2 2 0 8 167 82 312
541 2 2 0 8 227 22 310
542 2 2 0 8 109 140 309
543 2 2 0 8 50 199 308
544 2 2 0 8 168 81 307
545 2 2 0 8 110 139 306
546 2 2 0 8 22 227 305
547 2 2 0 8 51 198 304
548 2 2 0 8 169 80 303
549 2 2 0 8 111 138 302
550 2 2 0 8 21 228 301
551 2 2 0 8 52 197 299
552 2 2 0 8 170 79 300
553 2 2 0 8 20 229 298
554 2 2 0 8 138 111 297
555 2 2 0 8 53 196 296
556 2 2 0 8 171 78 295
557 2 2 0 8 231 18 293
558 2 2 0 8 113 136 294
559 2 2 0 8 172 77 291
560 2 2 0 8 196 53 292
561 2 2 0 8 232 17 289
562 2 2 0 8 136 113 290
563 2 2 0 8 55 194 288
564 2 2 0 8 173 76 287
565 2 2 0 8 115 134 243
566 2 2 0 8 233 16 286
567 2 2 0 8 194 55 284
568 2 2 0 8 76 173 285
569 2 2 0 8 116 133 282
570 2 2 0 8 16 233 283
571 2 2 0 8 175 74 281
572 2 2 0 8 57 192 280
573 2 2 0 8 235 14 279
574 2 2 0 8 133 116 278
575 2 2 0 8 192 57 277
576 2 2 0 8 176 73 244
577 2 2 0 8 236 13 275
578 2 2 0 8 118 131 276
579 2 2 0 8 59 190 274
580 2 2 0 8 177 72 273
581 2 2 0 8 237 12 271
582 2 2 0 8 119 130 272
583 2 2 0 8 72 177 270
584 2 2 0 8 60 189 269
585 2 2 0 8 12 237 268
586 2 2 0 8 130 119 267
587 2 2 0 8 179 70 265
588 2 2 0 8 189 60 266
589 2 2 0 8 11 238 264
590 2 2 0 8 129 120 245
591 2 2 0 8 62 187 262
592 2 2 0 8 70 179 263
593 2 2 0 8 128 121 259
594 2 2 0 8 10 239 260
595 2 2 0 8 187 62 246
596 2 2 0 8 181 68 261
597 2 2 0 8 186 63 257
598 2 2 0 8 182 67 258
599 2 2 0 8 241 8 248
600 2 2 0 8 123 126 247
601 2 2 0 8 8 241 249
602 2 2 0 8 126 123 250
603 2 2 0 8 183 66 256
604 2 2 0 8 185 64 255
605 2 2 0 8 5 2 254
606 2 2 0 8 184 65 251
607 2 2 0 8 3 6 252
608 2 2 0 8 7 242 253
609 2 2 0 8 4 1 253
610 2 2 0 8 125 124 252
611 2 2 0 8 2 5 251
612 2 2 0 8 66 183 254
613 2 2 0 8 242 7 249
614 2 2 0 8 124 125 250
615 2 2 0 8 67 182 256
616 2 2 0 8 65 184 255
617 2 2 0 8 64 185 257
618 2 2 0 8 68 181 258
619 2 2 0 8 9 240 248
620 2 2 0 8 127 122 247
621 2 2 0 8 240 9 260
622 2 2 0 8 122 127 259
623 2 2 0 8 63 186 246
624 2 2 0 8 69 180 261
625 2 2 0 8 180 69 263
626 2 2 0 8 188 61 262
627 2 2 0 8 121 128 245
628 2 2 0 8 239 10 264
629 2 2 0 8 61 188 266
630 2 2 0 8 71 178 265
631 2 2 0 8 238 11 268
632 2 2 0 8 120 129 267
633 2 2 0 8 190 59 269
634 2 2 0 8 178 71 270
635 2 2 0 8 131 118 272
636 2 2 0 8 13 236 271
637 2 2 0 8 73 176 273
638 2 2 0 8 191 58 274
639 2 2 0 8 14 235 275
640 2 2 0 8 132 117 276
641 2 2 0 8 74 175 244
642 2 2 0 8 58 191 277
643 2 2 0 8 117 132 278
644 2 2 0 8 15 234 279
645 2 2 0 8 193 56 280
646 2 2 0 8 75 174 281
647 2 2 0 8 234 15 283
648 2 2 0 8 134 115 282
649 2 2 0 8 174 75 285
650 2 2 0 8 56 193 284
651 2 2 0 8 17 232 286
652 2 2 0 8 135 114 243
653 2 2 0 8 195 54 288
654 2 2 0 8 77 172 287
655 2 2 0 8 114 135 290
656 2 2 0 8 18 231 289
657 2 2 0 8 54 195 292
658 2 2 0 8 78 171 291
659 2 2 0 8 19 230 293
660 2 2 0 8 137 112 294
661 2 2 0 8 197 52 296
662 2 2 0 8 79 170 295
663 2 2 0 8 230 19 298
664 2 2 0 8 112 137 297
665 2 2 0 8 198 51 299
666 2 2 0 8 80 169 300
667 2 2 0 8 229 20 301
668 2 2 0 8 139 110 302
669 2 2 0 8 199 50 304
670 2 2 0 8 81 168 303
671 2 2 0 8 228 21 305
672 2 2 0 8 140 109 306
673 2 2 0 8 200 49 308
674 2 2 0 8 82 167 307
675 2 2 0 8 23 226 310
676 2 2 0 8 141 108 309
677 2 2 0 8 201 48 311
678 2 2 0 8 83 166 312
679 2 2 0 8 24 225 314
680 2 2 0 8 142 107 313
681 2 2 0 8 166 83 316
682 2 2 0 8 202 47 315
683 2 2 0 8 25 224 317
684 2 2 0 8 143 106 318
685 2 2 0 8 203 46 320
686 2 2 0 8 85 164 319
687 2 2 0 8 26 223 321
688 2 2 0 8 144 105 322
689 2 2 0 8 204 45 323
690 2 2 0 8 86 163 324
691 2 2 0 8 27 222 325
692 2 2 0 8 145 104 326
693 2 2 0 8 205 44 327
694 2 2 0 8 87 162 328
695 2 2 0 8 28 221 329
696 2 2 0 8 146 103 330
697 2 2 0 8 44 205 331
698 2 2 0 8 88 161 332
699 2 2 0 8 103 146 334
700 2 2 0 8 29 220 333
701 2 2 0 8 207 42 336
702 2 2 0 8 89 160 335
703 2 2 0 8 102 147 337
704 2 2 0 8 30 219 338
705 2 2 0 8 42 207 339
706 2 2 0 8 160 89 340
707 2 2 0 8 31 218 341
708 2 2 0 8 101 148 342
709 2 2 0 8 41 208 343
710 2 2 0 8 159 90 344
711 2 2 0 8 32 217 346
712 2 2 0 8 100 149 345
713 2 2 0 8 210 39 347
714 2 2 0 8 92 157 348
715 2 2 0 8 99 150 349
716 2 2 0 8 33 216 350
717 2 2 0 8 211 38 351
718 2 2 0 8 93 156 352
719 2 2 0 8 34 215 353
720 2 2 0 8 152 97 354
721 2 2 0 8 212 37 356
722 2 2 0 8 94 155 355
723 2 2 0 8 35 214 357
724 2 2 0 8 153 96 358
725 2 2 0 8 213 36 360
726 2 2 0 8 95 154 359
727 2 2 0 8 214 35 362
728 2 2 0 8 96 153 361
$EndElements
